<svg width="10" height="10" viewBox="0 0 10 10" fill="none" xmlns="http://www.w3.org/2000/svg">
    <path fill-rule="evenodd" clip-rule="evenodd" d="M8.61908 7.25802L8.56708 7.3169L7.29091 8.59141V8.59141L7.23243 8.6377V8.6377L7.20459 8.656L7.16989 8.67611L7.1083 8.70486L7.05337 8.724V8.724L7.00283 8.73679L6.92822 8.74761L6.8749 8.74987L6.82182 8.74762L6.7818 8.74298L6.73029 8.73305L6.65911 8.71161V8.71161L6.61042 8.69133V8.69133L6.54306 8.65465V8.65465L6.51759 8.63772V8.63772L6.4814 8.60899L6.43298 8.56682L5.18283 7.3169C4.93873 7.07283 4.93873 6.67712 5.18283 6.43305C5.40815 6.20776 5.7627 6.19043 6.0079 6.38106L6.06678 6.43305L6.24976 6.61587L6.2499 1.87524C6.2499 1.55472 6.49118 1.29055 6.80202 1.25445L6.875 1.25024C7.22018 1.25024 7.5 1.53007 7.5 1.87524L7.49976 6.61587L7.68312 6.43305C7.90845 6.20776 8.26299 6.19043 8.50819 6.38106L8.56708 6.43305C8.77362 6.63957 8.8054 6.95467 8.66241 7.19459L8.61908 7.25802V7.25802Z" fill="black"/>
    <path fill-rule="evenodd" clip-rule="evenodd" d="M2.73581 1.38643L2.76783 1.36205L2.81364 1.3329V1.3329L2.8888 1.29614V1.29614L2.98053 1.26673V1.26673L3.03205 1.25679L3.10455 1.25024L3.17847 1.25217L3.25307 1.26299L3.32316 1.28189V1.28189L3.35854 1.29492L3.42013 1.32367L3.48267 1.36208V1.36208L3.51374 1.38529V1.38529L3.56719 1.43296L4.81732 2.68288L4.86932 2.74175C5.04409 2.96649 5.04409 3.2831 4.86932 3.50784L4.81732 3.56672L4.75844 3.61871C4.53367 3.79346 4.21702 3.79346 3.99225 3.61871L3.93337 3.56672L3.75 3.38391L3.75025 8.12453C3.75025 8.44505 3.50897 8.70922 3.19814 8.74533L3.12525 8.74953L3.05226 8.74533C2.76533 8.712 2.53768 8.48435 2.50435 8.19742L2.50015 8.12453L2.5 3.38391L2.31703 3.56672L2.25814 3.61871C2.01294 3.80934 1.65839 3.79201 1.43307 3.56672C1.20775 3.34143 1.19042 2.98692 1.38108 2.74175L1.43307 2.68288L2.68321 1.43296L2.73581 1.38643Z" fill="black"/>
</svg>
