<svg width="24" height="24" viewBox="0 0 24 24" fill="none" xmlns="http://www.w3.org/2000/svg">
<g id="Line Duotone / Arrows / Sort Horizontal">
<path id="Vector (Stroke)" fill-rule="evenodd" clip-rule="evenodd" d="M10.6634 3.47789C10.9518 3.77526 10.9445 4.25007 10.6471 4.53843L7.8508 7.25L18 7.25C18.4142 7.25 18.75 7.58579 18.75 8C18.75 8.41421 18.4142 8.75 18 8.75L7.8508 8.75L10.6471 11.4616C10.9445 11.7499 10.9518 12.2247 10.6634 12.5221C10.3751 12.8195 9.90026 12.8268 9.60289 12.5384L5.47789 8.53843C5.33222 8.39717 5.25 8.20291 5.25 8C5.25 7.79709 5.33222 7.60283 5.47789 7.46158L9.60289 3.46158C9.90026 3.17322 10.3751 3.18053 10.6634 3.47789Z" fill="#5A607D"/>
<path id="Vector (Stroke)_2" fill-rule="evenodd" clip-rule="evenodd" d="M13.3366 11.4779C13.0482 11.7753 13.0555 12.2501 13.3529 12.5384L16.1492 15.25L6 15.25C5.58579 15.25 5.25 15.5858 5.25 16C5.25 16.4142 5.58579 16.75 6 16.75L16.1492 16.75L13.3529 19.4616C13.0555 19.7499 13.0482 20.2247 13.3366 20.5221C13.6249 20.8195 14.0997 20.8268 14.3971 20.5384L18.5221 16.5384C18.6678 16.3972 18.75 16.2029 18.75 16C18.75 15.7971 18.6678 15.6028 18.5221 15.4616L14.3971 11.4616C14.0997 11.1732 13.6249 11.1805 13.3366 11.4779Z" fill="#5A607D"/>
</g>
</svg>
