<svg width="24" height="24" viewBox="0 0 24 24" fill="none" xmlns="http://www.w3.org/2000/svg">
<g id="Line Duotone / Arrows / Refresh Square">
<g id="Group 2858529">
<path id="Union" fill-rule="evenodd" clip-rule="evenodd" d="M12.061 4C8.3625 4 5.27635 6.65033 4.64404 10.1546L4.43357 9.91691C4.0515 9.48547 3.39201 9.44545 2.96057 9.82752C2.52914 10.2096 2.48912 10.8691 2.87119 11.3005L4.78781 13.4648C4.97603 13.6773 5.24274 13.804 5.52641 13.8156C5.81008 13.8272 6.08623 13.7227 6.29116 13.5262L8.54847 11.3619C8.96446 10.9631 8.97836 10.3025 8.57952 9.88655C8.18068 9.47056 7.52013 9.45666 7.10414 9.8555L6.7752 10.1709C7.36681 7.82904 9.50366 6.08696 12.061 6.08696C13.6529 6.08696 15.0826 6.7618 16.0791 7.83904C16.4704 8.26209 17.1306 8.28778 17.5537 7.89643C17.9767 7.50509 18.0024 6.84489 17.6111 6.42185C16.2342 4.93343 14.2558 4 12.061 4ZM19.2064 10.5339C19.0179 10.3217 18.7512 10.1955 18.4676 10.1843C18.1841 10.173 17.9082 10.2778 17.7035 10.4743L15.4513 12.6374C15.0356 13.0366 15.0223 13.6971 15.4215 14.1128C15.8207 14.5284 16.4813 14.5418 16.8969 14.1426L17.218 13.8342C16.6221 16.1714 14.4793 17.9129 11.9095 17.9129C10.3194 17.9129 8.89124 17.2458 7.89148 16.1805C7.4971 15.7603 6.83674 15.7393 6.41652 16.1337C5.99629 16.5281 5.97534 17.1885 6.36972 17.6087C7.75032 19.0798 9.72329 19.9999 11.9095 19.9999C15.6191 19.9999 18.7195 17.3493 19.3519 13.8399L19.5679 14.083C19.9507 14.5139 20.6102 14.5528 21.0411 14.1701C21.4719 13.7873 21.5109 13.1278 21.1281 12.6969L19.2064 10.5339Z" fill="#5A607D"/>
</g>
</g>
</svg>
