<svg width="16" height="16" viewBox="0 0 16 16" fill="none" xmlns="http://www.w3.org/2000/svg">
    <path opacity="0.4" d="M11.2562 3.40994H9.29415C8.80536 3.41317 8.3413 3.19574 8.03156 2.81838L7.38545 1.92512C7.08089 1.54445 6.61684 1.326 6.12879 1.33356H4.74172C2.25211 1.33356 1.33332 2.79472 1.33332 5.27926V7.96494C1.33022 8.2603 14.6637 8.25992 14.6646 7.96494V7.18409C14.6765 4.69954 13.7814 3.40994 11.2562 3.40994Z" fill="white"/>
    <path fill-rule="evenodd" clip-rule="evenodd" d="M13.8881 4.36232C14.1014 4.6117 14.2662 4.89858 14.3741 5.20825C14.5865 5.8447 14.6849 6.51354 14.6646 7.18405V10.6861C14.6637 10.9811 14.6419 11.2756 14.5994 11.5675C14.5183 12.0827 14.3371 12.577 14.0659 13.0227C13.9412 13.238 13.7899 13.4368 13.6154 13.6143C12.8255 14.3392 11.7766 14.7166 10.7049 14.6614H5.28705C4.21364 14.7162 3.16306 14.339 2.37065 13.6143C2.19825 13.4365 2.04889 13.2377 1.92608 13.0227C1.65648 12.5773 1.47911 12.0825 1.40445 11.5675C1.35697 11.2761 1.33318 10.9813 1.33331 10.6861V7.18405C1.3332 6.89158 1.34903 6.59931 1.38074 6.30855C1.3874 6.25753 1.3974 6.20735 1.4073 6.15769C1.4238 6.0749 1.44001 5.99355 1.44001 5.9122C1.50018 5.56132 1.60995 5.22073 1.76603 4.90064C2.22839 3.91273 3.17681 3.40991 4.72986 3.40991H11.2503C12.1201 3.34263 12.9835 3.6045 13.6687 4.14344C13.7477 4.21036 13.821 4.28356 13.8881 4.36232ZM4.64687 10.3607H11.357H11.3688C11.5161 10.3671 11.6597 10.3144 11.7678 10.2144C11.8758 10.1144 11.9392 9.97532 11.9438 9.82832C11.9521 9.69912 11.9096 9.57177 11.8252 9.47339C11.7282 9.34118 11.5745 9.26228 11.4103 9.26043H4.64687C4.34241 9.26043 4.0956 9.50674 4.0956 9.81058C4.0956 10.1144 4.34241 10.3607 4.64687 10.3607Z" fill="white"/>
</svg>
<!-- New -->
