<svg width="16" height="16" viewBox="0 0 16 16" fill="none" xmlns="http://www.w3.org/2000/svg">
    <path d="M6.76851 3.70377C6.80247 3.77288 6.82489 3.84689 6.83494 3.92297L7.02056 6.68292L7.1127 8.07013C7.11365 8.21279 7.13603 8.35452 7.17912 8.49077C7.29041 8.75512 7.55812 8.92313 7.84938 8.91141L12.2876 8.62111C12.4798 8.61794 12.6653 8.68982 12.8035 8.82093C12.9186 8.93019 12.993 9.07312 13.0164 9.22685L13.0242 9.3202C12.8406 11.8633 10.9728 13.9845 8.43491 14.5321C5.89705 15.0796 3.29459 13.9229 2.04048 11.69C1.67894 11.0413 1.45311 10.3282 1.37626 9.59273C1.34416 9.375 1.33003 9.15508 1.334 8.93511C1.33003 6.20857 3.27166 3.85139 5.98957 3.28313C6.31668 3.23219 6.63736 3.40536 6.76851 3.70377Z"
          fill="currentColor"/>
    <path opacity="0.4"
          d="M8.58003 1.33392C11.6199 1.41126 14.1749 3.59723 14.6667 6.54157L14.662 6.56329L14.6486 6.59489L14.6504 6.68161C14.6435 6.79652 14.5991 6.90707 14.5227 6.99636C14.443 7.08938 14.3342 7.15273 14.2144 7.17731L14.1414 7.18734L9.02083 7.51911C8.85051 7.53591 8.68092 7.48099 8.55425 7.36801C8.4487 7.27386 8.38122 7.14677 8.36216 7.00983L8.01846 1.89675C8.01248 1.87946 8.01248 1.86072 8.01846 1.84343C8.02316 1.70249 8.0852 1.56927 8.19072 1.47353C8.29624 1.37779 8.43645 1.32751 8.58003 1.33392Z"
          fill="currentColor"/>
</svg>
        <!-- New -->
