<svg width="16" height="16" viewBox="0 0 16 16" fill="none" xmlns="http://www.w3.org/2000/svg">
    <path fill-rule="evenodd" clip-rule="evenodd" d="M1.58301 8.00016C1.58301 4.45633 4.45585 1.5835 7.99967 1.5835C11.5435 1.5835 14.4163 4.45633 14.4163 8.00016C14.4163 11.544 11.5435 14.4168 7.99967 14.4168C4.45585 14.4168 1.58301 11.544 1.58301 8.00016ZM7.99967 2.75016C5.10018 2.75016 2.74967 5.10067 2.74967 8.00016C2.74967 10.8997 5.10018 13.2502 7.99967 13.2502C10.8992 13.2502 13.2497 10.8997 13.2497 8.00016C13.2497 5.10067 10.8992 2.75016 7.99967 2.75016Z" fill="#000000"/>
    <path fill-rule="evenodd" clip-rule="evenodd" d="M8.00269 4.9165C8.32485 4.91654 8.58599 5.17773 8.58596 5.4999L8.58564 7.7608L9.88792 9.06308C10.1157 9.29089 10.1157 9.66024 9.88792 9.88804C9.66011 10.1158 9.29076 10.1158 9.06296 9.88804L7.5898 8.41488C7.48039 8.30547 7.41893 8.15708 7.41895 8.00235L7.4193 5.49978C7.41933 5.17761 7.68052 4.91647 8.00269 4.9165Z" fill="#000000"/>
</svg>
