<svg width="16" height="16" viewBox="0 0 16 16" fill="none" xmlns="http://www.w3.org/2000/svg">
<path fill-rule="evenodd" clip-rule="evenodd" d="M14.4 7.99998C14.4 11.5346 11.5346 14.4 8.00001 14.4C4.46538 14.4 1.60001 11.5346 1.60001 7.99998C1.60001 4.46535 4.46538 1.59998 8.00001 1.59998C11.5346 1.59998 14.4 4.46535 14.4 7.99998ZM8.80001 11.2C8.80001 11.6418 8.44183 12 8.00001 12C7.55818 12 7.20001 11.6418 7.20001 11.2C7.20001 10.7581 7.55818 10.4 8.00001 10.4C8.44183 10.4 8.80001 10.7581 8.80001 11.2ZM8.00001 3.99998C7.55818 3.99998 7.20001 4.35815 7.20001 4.79998V7.99998C7.20001 8.4418 7.55818 8.79998 8.00001 8.79998C8.44183 8.79998 8.80001 8.4418 8.80001 7.99998V4.79998C8.80001 4.35815 8.44183 3.99998 8.00001 3.99998Z" fill="#BBC1C9"/>
</svg>
