<svg width="14" height="14" viewBox="0 0 14 14" fill="none" xmlns="http://www.w3.org/2000/svg">
<g id="cdnlogo.com_google-ad-manager 1" clip-path="url(#clip0_1855_16175)">
<g id="Group">
<path id="Vector" d="M13.1372 7.83608L7.83612 13.1371C7.35252 13.6207 6.56806 13.6207 6.08446 13.1371C5.60033 12.6535 5.60086 11.8691 6.08446 11.3855L11.386 6.08389C11.8696 5.60029 12.6541 5.60029 13.1377 6.08389C13.6213 6.56802 13.6213 7.35195 13.1372 7.83608Z" fill="#BABED4"/>
<path id="Vector_2" d="M7.83602 13.1378C8.31985 12.6539 8.31985 11.8695 7.83602 11.3857C7.3522 10.9018 6.56776 10.9018 6.08393 11.3857C5.6001 11.8695 5.6001 12.6539 6.08393 13.1378C6.56776 13.6216 7.3522 13.6216 7.83602 13.1378Z" fill="#5A607D"/>
<path id="Vector_3" d="M8.77533 3.47345L6.12427 6.12398L7.87593 7.87564L10.527 5.22511C11.0106 4.74151 11.0106 3.95705 10.527 3.47345C10.0429 2.98932 9.25893 2.98932 8.77533 3.47345Z" fill="#BABED4"/>
<path id="Vector_4" d="M5.22532 10.5267L7.87585 7.87617L6.12419 6.12451L3.47366 8.77504C2.99006 9.25864 2.99006 10.0431 3.47366 10.5267C3.95726 11.0103 4.74172 11.0103 5.22532 10.5267Z" fill="#808395"/>
<path id="Vector_5" d="M7.88204 7.87019C8.36587 7.38636 8.36587 6.60192 7.88204 6.1181C7.39822 5.63427 6.61378 5.63427 6.12995 6.11809C5.64613 6.60192 5.64613 7.38636 6.12995 7.87019C6.61378 8.35401 7.39822 8.35401 7.88204 7.87019Z" fill="#5A607D"/>
<path id="Vector_6" d="M7.91632 2.61485L2.61473 7.91644C2.13113 8.40004 1.34667 8.40004 0.863066 7.91644C0.379466 7.43284 0.379466 6.64838 0.863066 6.16478L6.16466 0.863188C6.64826 0.379588 7.43272 0.379588 7.91632 0.863188C8.39992 1.34679 8.39992 2.13125 7.91632 2.61485Z" fill="#808395"/>
<path id="Vector_7" d="M7.04007 2.97785C7.72432 2.97785 8.279 2.42317 8.279 1.73893C8.279 1.05469 7.72432 0.5 7.04007 0.5C6.35583 0.5 5.80115 1.05469 5.80115 1.73893C5.80115 2.42317 6.35583 2.97785 7.04007 2.97785Z" fill="#5A607D"/>
</g>
</g>
<defs>
<clipPath id="clip0_1855_16175">
<rect width="13" height="13" fill="white" transform="translate(0.5 0.5)"/>
</clipPath>
</defs>
</svg>
