<svg width="16" height="16" viewBox="0 0 16 16" fill="none" xmlns="http://www.w3.org/2000/svg">
<path fill-rule="evenodd" clip-rule="evenodd" d="M14.6643 5.58342H11.8412C10.5274 5.58573 9.46315 6.62343 9.46078 7.90438C9.459 9.18821 10.5245 10.2305 11.8412 10.2323H14.6667V10.4362C14.6667 12.6757 13.3091 14 11.0116 14H4.98908C2.691 14 1.33337 12.6757 1.33337 10.4362V5.55857C1.33337 3.31908 2.691 2 4.98908 2H11.0092C13.3067 2 14.6643 3.31908 14.6643 5.55857V5.58342ZM4.49308 5.57822H8.25308H8.25545H8.26019C8.54167 5.57706 8.76923 5.35346 8.76804 5.07843C8.76686 4.80399 8.53693 4.58212 8.25545 4.58327H4.49308C4.21338 4.58443 3.98641 4.80572 3.98523 5.07901C3.98404 5.35346 4.2116 5.57706 4.49308 5.57822Z" fill="black"/>
<path opacity="0.4" d="M10.695 8.19775C10.8344 8.83188 11.3904 9.27802 12.0251 9.26642H14.1917C14.4558 9.26642 14.67 9.0477 14.67 8.77734V7.08964C14.6695 6.81986 14.4558 6.60056 14.1917 6.59998H11.9741C11.2521 6.6023 10.6689 7.20161 10.67 7.94016C10.67 8.02661 10.6785 8.11305 10.695 8.19775Z" fill="black"/>
<ellipse cx="12" cy="7.96672" rx="0.666667" ry="0.666667" fill="black"/>
</svg>
