<svg width="16" height="16" viewBox="0 0 16 16" fill="none" xmlns="http://www.w3.org/2000/svg">
<path d="M8.00002 1.59998C5.79088 1.59998 4.00002 3.39084 4.00002 5.59998V7.19998C3.11637 7.19998 2.40002 7.91632 2.40002 8.79998V12.8C2.40002 13.6836 3.11637 14.4 4.00002 14.4H12C12.8837 14.4 13.6 13.6836 13.6 12.8V8.79998C13.6 7.91632 12.8837 7.19998 12 7.19998H5.60002V5.59998C5.60002 4.27449 6.67454 3.19998 8.00002 3.19998C9.11723 3.19998 10.058 3.96407 10.3245 4.99938C10.4346 5.42726 10.8707 5.68485 11.2986 5.57473C11.7265 5.4646 11.9841 5.02845 11.874 4.60057C11.43 2.87551 9.86496 1.59998 8.00002 1.59998Z" fill="#000000"/>
</svg>
