<svg width="16" height="16" viewBox="0 0 16 16" fill="none" xmlns="http://www.w3.org/2000/svg">
<path d="M3.0425 7.9716C3.0425 7.73187 2.88261 7.56347 2.68616 7.56347C2.48971 7.56347 2.32981 7.7348 2.32981 7.9716C2.32981 8.2056 2.48971 8.3796 2.68616 8.3796C2.88285 8.3796 3.0425 8.21133 3.0425 7.9716ZM3.04537 8.68493V8.49947C2.94846 8.62787 2.80411 8.7076 2.63143 8.7076C2.27245 8.7076 2 8.39373 2 7.9716C2 7.55213 2.28285 7.23267 2.63943 7.23267C2.80721 7.23267 2.94858 7.31267 3.04549 7.438V7.25827H3.36778V8.68493H3.04537ZM4.93297 8.36813C4.82016 8.36813 4.78885 8.32253 4.78885 8.2028V7.56933H4.99594V7.25813H4.78885V6.91013H4.45856V7.25813H4.03315V7.17147C4.03315 7.05147 4.07521 7.00573 4.19052 7.00573H4.26294V6.72907H4.10401C3.83155 6.72907 3.70321 6.82613 3.70321 7.1228V7.258H3.51978V7.56933H3.70321V8.6848H4.0335V7.56933H4.45891V8.2684C4.45891 8.55947 4.56097 8.68507 4.82817 8.68507H4.99857V8.36827L4.93297 8.36813ZM6.11731 7.84307C6.09377 7.65773 5.95479 7.5464 5.7924 7.5464C5.62988 7.5464 5.49628 7.6548 5.46235 7.84307H6.11731ZM5.45959 8.06573C5.48325 8.2768 5.62211 8.3968 5.79765 8.3968C5.93651 8.3968 6.04406 8.32533 6.1068 8.2112H6.44498C6.36623 8.5136 6.11731 8.7076 5.78977 8.7076C5.39423 8.7076 5.11651 8.40533 5.11651 7.9744C5.11651 7.5436 5.41 7.23253 5.79789 7.23253C6.18829 7.23253 6.47115 7.5464 6.47115 7.9744C6.47115 8.00587 6.46864 8.03707 6.46338 8.06573H5.45959ZM8.57087 7.9716C8.57087 7.7404 8.41093 7.56347 8.21453 7.56347C8.01807 7.56347 7.85813 7.7348 7.85813 7.9716C7.85813 8.2056 8.01807 8.3796 8.21453 8.3796C8.41093 8.3796 8.57087 8.2028 8.57087 7.9716ZM7.53313 7.25827H7.8554V7.44373C7.9522 7.3124 8.09633 7.23267 8.26933 7.23267C8.62307 7.23267 8.90067 7.54947 8.90067 7.96867C8.90067 8.38827 8.6178 8.70787 8.26147 8.70787C8.09633 8.70787 7.96007 8.6364 7.86593 8.51667V9.272H7.53313V7.25827ZM10.0622 7.9716C10.0622 7.73187 9.90253 7.56347 9.70587 7.56347C9.5094 7.56347 9.34953 7.7348 9.34953 7.9716C9.34953 8.2056 9.5094 8.3796 9.70587 8.3796C9.90253 8.3796 10.0622 8.21133 10.0622 7.9716ZM10.0651 8.68493V8.49947C9.96813 8.62787 9.8238 8.7076 9.65113 8.7076C9.29213 8.7076 9.01967 8.39373 9.01967 7.9716C9.01967 7.55213 9.30253 7.23267 9.659 7.23267C9.82667 7.23267 9.96813 7.31267 10.0651 7.438V7.25827H10.3872V8.68493H10.0651ZM6.9524 7.39813C6.9524 7.39813 7.03433 7.2328 7.2352 7.2328C7.32113 7.2328 7.37673 7.2648 7.37673 7.2648V7.6288C7.37673 7.6288 7.25553 7.54733 7.14413 7.56373C7.0328 7.58013 6.9624 7.69147 6.96273 7.84053V8.6852H6.63008V7.25853H6.9524V7.39813ZM11.8922 7.25827L11.0787 9.26747H10.7355L11.055 8.49067L10.5149 7.25827H10.9037L11.2197 8.08173L11.5439 7.25827H11.8922ZM14.4893 7.22587L13.6826 6.71907C13.446 6.57025 13.15 6.75613 13.15 7.054V7.106C13.15 7.15293 13.1731 7.1964 13.2104 7.21973L13.3627 7.31547C13.4074 7.34373 13.4631 7.30853 13.4631 7.2524V7.12307C13.4631 7.0584 13.5274 7.01787 13.5788 7.05027L14.2774 7.48947C14.3287 7.52173 14.3287 7.60253 14.2774 7.6348L13.5788 8.07387C13.5274 8.10613 13.4632 8.06587 13.4632 8.00107V7.93227C13.4632 7.63453 13.1673 7.44827 12.9303 7.59733L12.1237 8.10427C12.0699 8.1372 12.025 8.18573 11.9938 8.2446C11.9625 8.30353 11.9461 8.37073 11.9461 8.4392C11.9461 8.50767 11.9625 8.57487 11.9938 8.6338C12.025 8.69273 12.0699 8.7412 12.1237 8.77413L12.9303 9.28093C13.167 9.42973 13.4632 9.24387 13.4632 8.946V8.894C13.4631 8.8708 13.4574 8.848 13.4468 8.828C13.4362 8.808 13.421 8.79153 13.4027 8.78027L13.2505 8.68427C13.2058 8.65613 13.15 8.69133 13.15 8.74747V8.8768C13.15 8.94147 13.0857 8.98187 13.0345 8.94947L12.3357 8.5104C12.3241 8.5032 12.3144 8.49267 12.3076 8.47993C12.3009 8.46713 12.2973 8.45253 12.2973 8.43767C12.2973 8.4228 12.3009 8.4082 12.3076 8.39547C12.3144 8.38267 12.3241 8.37213 12.3357 8.36493L13.0345 7.92573C13.0859 7.89333 13.15 7.93373 13.15 7.99853V8.06733C13.15 8.36507 13.4459 8.55133 13.6826 8.40227L14.4893 7.89533C14.543 7.8624 14.5878 7.81393 14.619 7.75507C14.6502 7.6962 14.6667 7.62907 14.6667 7.56067C14.6667 7.49227 14.6502 7.42513 14.619 7.36627C14.5878 7.3074 14.543 7.2588 14.4893 7.22587Z" fill="black"/>
</svg>
