<svg width="16" height="16" viewBox="0 0 16 16" fill="none" xmlns="http://www.w3.org/2000/svg">
<path fill-rule="evenodd" clip-rule="evenodd" d="M2.30968 2.30968C1.33337 3.286 1.33337 4.85734 1.33337 8.00004C1.33337 11.1427 1.33337 12.7141 2.30968 13.6904C3.286 14.6667 4.85734 14.6667 8.00004 14.6667C11.1427 14.6667 12.7141 14.6667 13.6904 13.6904C14.6667 12.7141 14.6667 11.1427 14.6667 8.00005C14.6667 4.85736 14.6667 3.28599 13.6904 2.30968C12.7141 1.33337 11.1427 1.33337 8.00004 1.33337C4.85734 1.33337 3.286 1.33337 2.30968 2.30968ZM6.17251 5.31601C6.37542 5.12871 6.38808 4.81238 6.20077 4.60947C6.01347 4.40656 5.69714 4.3939 5.49423 4.58121L3.99423 5.96582C3.89169 6.06048 3.83337 6.19367 3.83337 6.33322C3.83337 6.47277 3.89169 6.60597 3.99423 6.70062L5.49423 8.08524C5.69714 8.27254 6.01347 8.25989 6.20077 8.05698C6.38808 7.85407 6.37542 7.53774 6.17251 7.35044L5.6122 6.83322H9.35901C10.3574 6.83322 11.1667 7.64255 11.1667 8.64092C11.1667 9.63928 10.3574 10.4486 9.35901 10.4486H6.33338C6.05723 10.4486 5.83338 10.6725 5.83338 10.9486C5.83338 11.2247 6.05723 11.4486 6.33338 11.4486H9.35901C10.9097 11.4486 12.1667 10.1916 12.1667 8.64091C12.1667 7.09027 10.9097 5.83322 9.35901 5.83322H5.6122L6.17251 5.31601Z" fill="#5A607D"/>
</svg>
