<svg width="12" height="12" viewBox="0 0 12 12" fill="none" xmlns="http://www.w3.org/2000/svg">
    <path fill-rule="evenodd" clip-rule="evenodd" d="M4.16756 8.50415C3.94415 8.73222 3.94415 9.10087 4.16756 9.32894C4.39097 9.55702 4.75209 9.55702 4.9755 9.32894L7.83244 6.4124C8.05585 6.18433 8.05585 5.81567 7.83244 5.5876L4.9755 2.67106C4.75209 2.44298 4.39097 2.44298 4.16756 2.67106C3.94415 2.89913 3.94415 3.26778 4.16756 3.49585L6.62053 6L4.16756 8.50415Z" fill="black"/>
</svg>
<!-- New -->