<svg width="24" height="24" viewBox="0 0 24 24" fill="none" xmlns="http://www.w3.org/2000/svg">
    <path d="M22 12C22 17.5228 17.5228 22 12 22C6.47715 22 2 17.5228 2 12C2 6.47715 6.47715 2 12 2C17.5228 2 22 6.47715 22 12Z" fill="#EDEFF1"/>
    <path d="M15.0099 13.7702C15.3499 14.1102 15.3499 14.6602 15.0099 14.9992C14.8399 15.1692 14.6199 15.2602 14.3899 15.2602C14.1699 15.2602 13.9499 15.1802 13.7799 14.9992L11.9999 13.2302L10.2199 14.9992C10.0499 15.1692 9.82985 15.2602 9.59985 15.2602C9.37985 15.2602 9.14985 15.1692 8.97985 14.9992C8.63985 14.6602 8.63985 14.1102 8.97985 13.7602L10.7599 11.9902L8.97985 10.2092C8.63985 9.8702 8.63985 9.3102 8.97985 8.9702C9.31985 8.6292 9.86985 8.6292 10.2199 8.9702L11.9999 10.7492L13.7699 8.9702C14.1199 8.6292 14.6699 8.6292 15.0099 8.9702C15.3499 9.3102 15.3499 9.8702 15.0099 10.2092L13.2299 11.9902L15.0099 13.7702Z" fill="black"/>
</svg>
<!-- New -->