<svg width="24" height="24" viewBox="0 0 24 24" fill="none" xmlns="http://www.w3.org/2000/svg">
    <path d="M12 1.99902C6.48 1.99902 2 6.48002 2 11.999C2 17.52 6.48 21.999 12 21.999C17.53 21.999 22 17.52 22 11.999C22 6.48002 17.53 1.99902 12 1.99902Z" fill="#000000"/>
    <path d="M12.0099 16.6797C11.5199 16.6797 11.1299 16.2797 11.1299 15.7997C11.1299 15.3197 11.5199 14.9297 11.9999 14.9297C12.4899 14.9297 12.8799 15.3197 12.8799 15.7997C12.8799 16.2797 12.4899 16.6797 12.0099 16.6797Z" fill="white"/>
    <path d="M11.1201 8.2091C11.1201 7.7301 11.5201 7.3291 12.0001 7.3291C12.4801 7.3291 12.8701 7.7301 12.8701 8.2091V12.6291C12.8701 13.1101 12.4801 13.4991 12.0001 13.4991C11.5201 13.4991 11.1201 13.1101 11.1201 12.6291V8.2091Z" fill="white"/>
</svg>
<!-- New -->