<svg width="264" height="182" viewBox="0 0 264 182" fill="none" xmlns="http://www.w3.org/2000/svg">
<g clip-path="url(#clip0_1_3173)">
<path d="M110.475 170.136H71.6771C62.0987 170.136 60.2691 172.401 64.305 174.073C68.3408 175.745 49.0224 174.936 45.7399 177.902C42.4036 180.867 50.9058 182 60.1076 182H134.045C141.417 182 139.587 176.607 135.175 175.906C130.762 175.205 142.332 176.176 146.744 174.612C151.157 173.048 147.982 170.136 110.475 170.136Z" fill="#CFDCFF"/>
<path d="M167.085 180.004C165.955 181.568 162.188 181.946 155.784 181.784C150.941 181.622 145.883 181.245 145.883 178.98C145.883 176.715 158.206 176.985 162.511 177.47C166.224 177.901 167.73 179.088 167.085 180.004Z" fill="#EAEFFF"/>
<path d="M55.5865 172.455C54.8331 173.588 52.2502 173.911 47.73 173.911C44.3399 173.911 40.7883 173.749 40.6807 172.185C40.5731 170.568 49.2367 170.514 52.304 170.783C54.887 170.999 56.017 171.754 55.5865 172.455Z" fill="#EAEFFF"/>
<path d="M245.059 168.788H225.848C225.121 168.785 224.425 168.495 223.911 167.979C223.397 167.464 223.106 166.767 223.104 166.038V146.139C223.106 145.411 223.397 144.713 223.911 144.198C224.425 143.683 225.121 143.392 225.848 143.389H245.059C245.786 143.392 246.482 143.683 246.996 144.198C247.51 144.713 247.8 145.411 247.803 146.139V166.038C247.8 166.767 247.51 167.464 246.996 167.979C246.482 168.495 245.786 168.785 245.059 168.788Z" fill="#C5DFFF"/>
<path d="M244.143 167.872H225.686C224.987 167.87 224.317 167.592 223.822 167.096C223.328 166.601 223.05 165.93 223.049 165.229V146.032C223.05 145.331 223.328 144.66 223.822 144.164C224.317 143.669 224.987 143.39 225.686 143.389H244.143C244.842 143.39 245.512 143.669 246.006 144.164C246.5 144.66 246.779 145.331 246.78 146.032V165.229C246.779 165.93 246.5 166.601 246.006 167.096C245.512 167.592 244.842 167.87 244.143 167.872Z" fill="#E1ECFF"/>
<path d="M235.102 163.611C239.382 163.611 242.851 160.135 242.851 155.846C242.851 151.557 239.382 148.081 235.102 148.081C230.823 148.081 227.354 151.557 227.354 155.846C227.354 160.135 230.823 163.611 235.102 163.611Z" fill="#C5DFFF"/>
<path d="M232.035 159.351C231.907 159.351 231.783 159.3 231.693 159.209C231.602 159.118 231.551 158.995 231.551 158.866V152.88C231.551 152.752 231.602 152.628 231.693 152.537C231.783 152.446 231.907 152.395 232.035 152.395V152.395C232.164 152.395 232.287 152.446 232.378 152.537C232.468 152.628 232.519 152.752 232.519 152.88V158.866C232.519 158.995 232.468 159.118 232.378 159.209C232.287 159.3 232.164 159.351 232.035 159.351Z" fill="#6367F6"/>
<path d="M237.631 159.351C237.502 159.351 237.379 159.3 237.288 159.209C237.198 159.118 237.146 158.995 237.146 158.866V152.88C237.146 152.752 237.198 152.628 237.288 152.537C237.379 152.446 237.502 152.395 237.631 152.395V152.395C237.759 152.395 237.882 152.446 237.973 152.537C238.064 152.628 238.115 152.752 238.115 152.88V158.866C238.115 158.995 238.064 159.118 237.973 159.209C237.882 159.3 237.759 159.351 237.631 159.351Z" fill="#6367F6"/>
<path d="M188.18 135.138C187.802 135.147 187.425 135.129 187.05 135.085C178.709 134.491 173.005 131.633 163.426 117.019C160.09 111.95 157.83 106.773 155.624 101.758C151.857 93.1841 148.628 85.7423 141.31 82.291C130.063 77.0063 119.032 85.7423 118.924 85.8502C118.695 86.0288 118.405 86.1105 118.117 86.0775C117.828 86.0446 117.564 85.8997 117.381 85.6739C117.198 85.4482 117.111 85.1595 117.138 84.8698C117.164 84.5802 117.303 84.3126 117.525 84.1245C118.009 83.747 129.74 74.4179 142.224 80.2958C150.296 84.0706 153.848 92.2134 157.615 100.842C159.767 105.803 162.027 110.926 165.256 115.779C174.35 129.584 179.57 132.28 187.211 132.874C192.915 133.305 195.982 129.854 198.942 126.456C199.932 125.295 200.992 124.197 202.117 123.167C204.715 120.896 207.875 119.369 211.265 118.745C211.406 118.724 211.55 118.731 211.689 118.765C211.828 118.8 211.958 118.861 212.073 118.946C212.188 119.032 212.285 119.139 212.359 119.261C212.432 119.384 212.481 119.52 212.503 119.662C212.524 119.803 212.517 119.948 212.482 120.087C212.448 120.226 212.386 120.357 212.301 120.472C212.216 120.587 212.11 120.684 211.987 120.758C211.865 120.832 211.729 120.881 211.588 120.902C208.625 121.51 205.865 122.865 203.57 124.839C202.517 125.797 201.528 126.824 200.61 127.912C197.597 131.364 194.26 135.138 188.18 135.138Z" fill="#6367F6"/>
<path d="M219.498 115.024L224.018 111.195C224.126 111.103 224.252 111.034 224.387 110.992C224.523 110.95 224.665 110.937 224.806 110.952C224.947 110.967 225.084 111.011 225.207 111.08C225.331 111.15 225.439 111.244 225.525 111.357C225.684 111.566 225.755 111.829 225.725 112.09C225.695 112.352 225.566 112.591 225.364 112.759L220.79 116.803L219.498 115.024Z" fill="#6367F6"/>
<path d="M216.699 111.788L221.219 107.96C221.327 107.868 221.453 107.799 221.588 107.757C221.724 107.715 221.866 107.701 222.007 107.716C222.148 107.732 222.285 107.775 222.408 107.845C222.532 107.915 222.64 108.009 222.726 108.121C222.885 108.331 222.957 108.594 222.927 108.855C222.896 109.116 222.767 109.356 222.565 109.524L217.991 113.568L216.699 111.788Z" fill="#6367F6"/>
<path d="M222.673 117.019C221.266 118.626 219.756 120.14 218.152 121.549C215.408 123.922 211.857 123.49 210.242 121.657C210.135 121.549 210.081 121.441 209.973 121.333C209.224 120.38 208.874 119.174 208.994 117.967C209.114 116.76 209.697 115.647 210.619 114.862C212.825 112.813 216.484 109.901 216.484 109.901L220.897 115.024L222.673 117.019Z" fill="#E1ECFF"/>
<path d="M222.672 117.019C221.266 118.627 219.756 120.14 218.152 121.549C215.408 123.922 211.856 123.49 210.242 121.657C210.134 121.549 210.08 121.441 209.973 121.333C211.92 121.341 213.828 120.779 215.461 119.715C217.382 118.304 219.182 116.735 220.843 115.024L222.672 117.019Z" fill="#C5DFFF"/>
<path d="M140.342 158.326H140.126C136.467 158.273 126.943 151.1 124.521 147.757C122.046 144.414 119.839 140.153 122.853 137.403C123.543 136.823 124.382 136.449 125.274 136.325C126.925 136.066 128.613 136.431 130.01 137.349C132.593 139.021 139.857 147.487 141.902 151.1C143.893 154.66 143.839 158.273 140.342 158.326Z" fill="#6367F6"/>
<path d="M140.343 158.326C140.881 158.003 141.257 157.464 141.58 156.385C142.118 154.498 140.235 150.723 134.047 143.497C130.334 139.129 127.159 137.188 125.275 136.325C126.926 136.066 128.614 136.431 130.011 137.349C132.594 139.021 139.858 147.487 141.903 151.1C143.894 154.66 143.84 158.273 140.343 158.326Z" fill="#384D89"/>
<path d="M122.152 139.723C122.691 138.213 125.812 138.482 128.502 141.125C131.193 143.767 135.282 148.998 134.26 151.263C133.238 153.528 129.363 151.694 126.188 148.566C123.013 145.439 121.291 142.149 122.152 139.723Z" fill="#142966"/>
<path d="M128.933 146.463C128.89 147.442 128.633 148.399 128.18 149.267C128.18 149.267 113.704 156.169 95.5698 143.497C77.1124 130.609 77.0586 114.539 77.0586 114.377C86.5294 105.102 97.1842 115.294 97.1842 115.294C97.7527 119.321 98.9512 123.234 100.736 126.888C102.404 130.231 104.825 133.628 108.269 135.893C113.457 139.271 119.683 140.668 125.812 139.83C125.812 139.83 127.534 140.369 128.556 143.659C128.908 144.549 129.037 145.511 128.933 146.463Z" fill="#E1ECFF"/>
<path d="M128.933 146.463C128.89 147.442 128.633 148.399 128.18 149.267C128.18 149.267 113.704 156.169 95.5698 143.497C77.1124 130.609 77.0586 114.539 77.0586 114.377C86.5294 105.102 97.1842 115.294 97.1842 115.294C97.7527 119.321 98.9512 123.234 100.736 126.888C99.3159 127.998 97.7378 128.889 96.0541 129.53C94.0526 130.07 91.9921 130.36 89.9196 130.393C89.9196 130.393 99.0138 144.036 112.467 146.517C119.731 147.757 125.328 147.218 128.933 146.463Z" fill="#C5DFFF"/>
<path d="M108.646 149.212C108.5 149.211 108.359 149.164 108.243 149.076C108.126 148.989 108.041 148.866 108 148.727C107.966 148.638 107.95 148.544 107.954 148.449C107.957 148.355 107.979 148.262 108.02 148.176C108.06 148.09 108.117 148.014 108.188 147.951C108.258 147.888 108.341 147.84 108.43 147.81C108.484 147.81 111.39 146.678 112.251 144.305C112.802 142.91 112.859 141.368 112.412 139.937C112.345 139.765 112.347 139.573 112.417 139.403C112.487 139.232 112.621 139.095 112.789 139.02C112.961 138.953 113.152 138.954 113.322 139.025C113.493 139.095 113.629 139.229 113.704 139.398C114.268 141.161 114.211 143.064 113.542 144.79C112.412 147.81 109.022 149.05 108.861 149.104C108.84 149.142 108.808 149.172 108.77 149.191C108.731 149.21 108.688 149.218 108.646 149.212Z" fill="#C5DFFF"/>
<path d="M96.1625 143.659C96.074 143.663 95.9855 143.65 95.9022 143.619C95.8189 143.589 95.7424 143.542 95.6773 143.482C95.6122 143.422 95.5597 143.349 95.5229 143.268C95.4861 143.188 95.4657 143.1 95.4629 143.011C95.4611 142.829 95.5255 142.651 95.6443 142.512C95.763 142.374 95.928 142.283 96.1087 142.256C96.1625 142.256 99.9293 141.987 101.813 139.506C102.938 138.054 103.561 136.275 103.588 134.437C103.574 134.251 103.634 134.067 103.755 133.926C103.876 133.784 104.049 133.697 104.234 133.682C104.42 133.668 104.603 133.728 104.745 133.849C104.886 133.971 104.973 134.143 104.988 134.329C105.015 136.518 104.293 138.649 102.943 140.369C100.629 143.335 96.3777 143.605 96.1625 143.659Z" fill="#C5DFFF"/>
<path d="M70.6548 133.466C70.4287 133.985 70.1396 134.474 69.7938 134.922C69.1939 135.702 68.4198 136.33 67.5337 136.756C66.9251 137.07 66.2717 137.288 65.5965 137.403C65.5965 137.403 58.0091 130.015 51.3902 116.857C44.7714 103.753 44.2871 88.6537 44.2871 88.6537C44.8447 88.3504 45.4197 88.0803 46.0091 87.8448C47.7509 87.1525 49.6433 86.9294 51.4979 87.1977C52.8695 87.3692 54.1897 87.8286 55.3723 88.5459C55.3723 88.5459 55.8028 101.057 60.2154 112.327C64.6279 123.652 71.0853 130.338 71.0853 130.338C71.2221 131.401 71.0735 132.481 70.6548 133.466Z" fill="#E1ECFF"/>
<path d="M70.6539 133.467C68.2862 131.364 63.766 126.564 59.4073 117.289C54.1876 106.18 52.0889 91.8898 51.5508 87.1982C52.9225 87.3698 54.2426 87.8291 55.4252 88.5464C55.4252 88.5464 55.8557 101.057 60.2683 112.328C64.6808 123.652 71.1382 130.339 71.1382 130.339C71.239 131.406 71.0726 132.481 70.6539 133.467Z" fill="#F8FBFF"/>
<path d="M67.5337 136.756C66.9251 137.07 66.2717 137.289 65.5965 137.403C65.5965 137.403 58.0091 130.015 51.3902 116.857C44.7714 103.753 44.2871 88.6541 44.2871 88.6541C44.8447 88.3508 45.4197 88.0807 46.0091 87.8452C46.3858 92.6985 48.1615 108.661 55.6952 121.171C60.8611 129.692 65.0046 134.329 67.5337 136.756Z" fill="#C5DFFF"/>
<path d="M82.5491 144.521C80.6915 145.53 78.5399 145.854 76.4683 145.438C73.1858 144.683 71.9482 143.605 71.9482 143.605C71.9482 143.605 70.8719 141.987 71.6791 141.07L71.7867 140.962C72.4799 140.387 73.3176 140.014 74.2082 139.884C75.2323 140.687 76.3532 141.357 77.5446 141.879C78.9437 142.364 81.419 141.879 82.3338 142.472C82.515 142.605 82.6526 142.788 82.7293 143C82.806 143.211 82.8182 143.44 82.7643 143.659C82.761 143.959 82.6873 144.255 82.5491 144.521Z" fill="#E1ECFF"/>
<path d="M82.549 144.522C80.6915 145.53 78.5399 145.855 76.4683 145.438C73.1858 144.683 71.9482 143.605 71.9482 143.605C71.9482 143.605 70.8719 141.987 71.6791 141.07C72.6477 141.987 74.9616 143.982 77.6522 144.306C79.3834 144.518 81.1402 144.296 82.7643 143.659C82.761 143.959 82.6873 144.255 82.549 144.522Z" fill="#C5DFFF"/>
<path d="M81.5255 143.012C79.3593 143.369 77.1363 142.97 75.2295 141.879C74.3849 141.458 73.6624 140.827 73.1309 140.046C73.1345 139.693 73.2076 139.345 73.3462 139.021C73.4847 138.697 73.6859 138.404 73.938 138.158C74.3685 137.781 75.0681 137.619 76.1443 137.943C76.1443 137.943 78.243 139.776 81.7407 138.536C85.2385 137.296 85.0232 136.541 85.7766 136.325C86.3147 136.163 87.0143 136.972 87.1757 137.889C87.2767 138.303 87.2389 138.739 87.0681 139.129C86.4605 140.124 85.6547 140.982 84.701 141.65C83.7473 142.318 82.6662 142.782 81.5255 143.012Z" fill="#E1ECFF"/>
<path d="M81.5255 143.012C79.3593 143.369 77.1363 142.97 75.2295 141.879C74.3849 141.458 73.6624 140.827 73.1309 140.046C73.1345 139.693 73.2076 139.345 73.3462 139.021C73.4847 138.697 73.6859 138.404 73.938 138.158C75.2295 139.453 78.0277 141.771 81.095 141.178C83.4045 140.673 85.5284 139.534 87.2295 137.889C87.3305 138.303 87.2927 138.739 87.1219 139.129C86.4959 140.119 85.6779 140.972 84.7166 141.639C83.7553 142.306 82.6701 142.773 81.5255 143.012Z" fill="#C5DFFF"/>
<path d="M80.9329 139.453C78.8773 139.804 76.764 139.422 74.9598 138.375C74.1522 137.991 73.464 137.394 72.9688 136.649C72.9769 135.964 73.2464 135.308 73.7221 134.815C74.1526 134.438 74.7983 134.276 75.8208 134.6C75.8208 134.6 77.8118 136.325 81.1481 135.139C84.4844 133.953 84.2692 133.252 84.9687 133.036C85.4531 132.874 86.1526 133.683 86.314 134.546C86.4127 134.942 86.3747 135.36 86.2064 135.732C85.637 136.688 84.8732 137.514 83.9646 138.155C83.0561 138.796 82.0231 139.238 80.9329 139.453Z" fill="#E1ECFF"/>
<path d="M80.9329 139.453C78.8773 139.804 76.764 139.422 74.9598 138.375C74.1522 137.991 73.464 137.394 72.9688 136.649C72.9769 135.964 73.2464 135.308 73.7221 134.816C74.906 136.056 77.5966 138.267 80.5024 137.674C82.6859 137.176 84.6942 136.095 86.314 134.546C86.4127 134.942 86.3747 135.36 86.2064 135.732C85.637 136.688 84.8732 137.514 83.9646 138.155C83.0561 138.796 82.0231 139.238 80.9329 139.453Z" fill="#C5DFFF"/>
<path d="M80.5561 136.756C78.7697 137.361 76.8287 137.323 75.0673 136.648C74.3059 136.418 73.6189 135.99 73.0763 135.408C73.0335 135.102 73.0544 134.791 73.1378 134.494C73.2212 134.197 73.3651 133.921 73.5606 133.682C73.8835 133.305 74.4754 133.089 75.444 133.197C75.444 133.197 77.435 134.437 80.2871 132.981C83.1391 131.471 82.87 130.878 83.4619 130.555C83.8924 130.339 84.592 130.932 84.8611 131.687C84.9874 132.033 85.0061 132.409 84.9149 132.766C84.0376 134.615 82.4732 136.047 80.5561 136.756Z" fill="#E1ECFF"/>
<path d="M80.5561 136.756C78.7697 137.361 76.8287 137.323 75.0673 136.648C74.3059 136.418 73.6189 135.99 73.0763 135.408C73.0335 135.102 73.0544 134.791 73.1378 134.494C73.2212 134.197 73.3651 133.921 73.5606 133.682C74.7983 134.599 77.435 136.217 79.9642 135.3C81.884 134.573 83.5619 133.322 84.8072 131.687C84.9335 132.033 84.9523 132.409 84.8611 132.766C84.4471 133.686 83.8527 134.514 83.1131 135.199C82.3736 135.885 81.504 136.414 80.5561 136.756Z" fill="#C5DFFF"/>
<path d="M78.6737 134.168C78.5336 134.896 78.354 135.616 78.1356 136.325C77.6909 137.914 77.001 139.425 76.0908 140.801C75.7014 141.304 75.2693 141.773 74.7993 142.203C74.0185 142.971 73.0556 143.528 72.0011 143.82C72.0011 143.82 67.8576 139.83 66.6737 138.482C65.9032 137.627 65.1844 136.727 64.5213 135.785C64.3315 134.752 64.3315 133.692 64.5213 132.658C64.6596 131.741 65.0511 130.882 65.6513 130.177C65.9651 129.875 66.3075 129.604 66.6737 129.368C67.8789 128.834 69.2369 128.757 70.4944 129.153C70.4944 129.153 74.4764 131.633 76.2522 132.604C77.1123 133.038 77.924 133.562 78.6737 134.168Z" fill="#E1ECFF"/>
<path d="M78.6738 134.168C78.5337 134.896 78.3541 135.616 78.1357 136.325C76.6826 135.494 75.2809 134.575 73.9384 133.575C71.6025 132.029 69.1767 130.624 66.6738 129.368C67.879 128.834 69.237 128.757 70.4945 129.153C70.4945 129.153 74.4765 131.633 76.2523 132.604C77.1124 133.038 77.9241 133.562 78.6738 134.168Z" fill="#F8FBFF"/>
<path d="M74.7993 142.149C74.0001 142.893 73.0435 143.446 72.0011 143.767C72.0011 143.767 67.8576 139.722 66.6737 138.428C65.9032 137.573 65.1844 136.673 64.5213 135.732C64.3315 134.698 64.3315 133.638 64.5213 132.604C66.1894 134.491 70.6558 139.345 73.7769 141.394C74.1535 141.717 74.5302 141.933 74.7993 142.149Z" fill="#C5DFFF"/>
<path d="M59.4081 128.343C58.9454 128.308 58.4912 128.199 58.0629 128.02C57.9089 127.931 57.7949 127.786 57.7448 127.616C57.6947 127.445 57.7123 127.261 57.7938 127.103C57.8287 127.025 57.8787 126.954 57.941 126.896C58.0033 126.837 58.0767 126.791 58.1568 126.761C58.2369 126.731 58.3221 126.717 58.4076 126.72C58.4931 126.723 58.5771 126.744 58.6548 126.78C58.7086 126.834 60.2153 127.535 62.2064 126.24C64.1974 124.946 64.5203 123.328 64.5203 123.274C64.5264 123.186 64.552 123.1 64.5951 123.023C64.6383 122.945 64.6981 122.878 64.7701 122.827C64.8421 122.775 64.9245 122.74 65.0116 122.725C65.0987 122.709 65.1881 122.712 65.2736 122.735C65.4468 122.78 65.5974 122.888 65.6967 123.037C65.7959 123.186 65.8369 123.367 65.8117 123.544C65.8117 123.652 65.435 125.809 62.9059 127.481C61.8509 128.109 60.6336 128.409 59.4081 128.343Z" fill="#C5DFFF"/>
<path d="M53.6505 117.504C52.9853 117.434 52.3332 117.271 51.7132 117.019C51.5593 116.93 51.4453 116.786 51.3952 116.615C51.3451 116.444 51.3626 116.261 51.4442 116.102C51.4749 116.027 51.5204 115.959 51.578 115.902C51.6356 115.844 51.704 115.799 51.7793 115.769C51.8546 115.739 51.9352 115.724 52.0163 115.726C52.0974 115.728 52.1773 115.746 52.2514 115.779C52.3052 115.833 54.1886 116.75 56.6639 115.617C59.0854 114.539 59.5159 112.975 59.5159 112.867C59.5302 112.784 59.5615 112.704 59.608 112.634C59.6545 112.564 59.7151 112.504 59.786 112.458C59.8568 112.412 59.9364 112.382 60.0196 112.369C60.1028 112.356 60.1879 112.36 60.2693 112.382C60.4367 112.444 60.5743 112.568 60.6542 112.728C60.7341 112.888 60.7504 113.073 60.6998 113.244C60.6998 113.352 60.1079 115.509 57.0944 116.911C56.02 117.414 54.8307 117.619 53.6505 117.504Z" fill="#C5DFFF"/>
<path d="M49.5604 105.371C48.6901 105.354 47.8457 105.072 47.1389 104.562C47.0055 104.442 46.9208 104.276 46.901 104.098C46.8811 103.919 46.9275 103.739 47.0313 103.592C47.0773 103.516 47.14 103.451 47.2147 103.403C47.2894 103.354 47.3741 103.324 47.4624 103.314C47.5506 103.303 47.6401 103.313 47.7239 103.343C47.8077 103.372 47.8837 103.42 47.9461 103.484C47.9999 103.484 49.1838 104.401 51.8205 103.861C55.1569 103.16 56.0717 101.866 56.1255 101.812C56.1721 101.738 56.2337 101.674 56.3063 101.625C56.3789 101.576 56.4609 101.543 56.5471 101.528C56.6333 101.513 56.7217 101.516 56.8066 101.537C56.8915 101.558 56.9711 101.597 57.0403 101.65C57.1737 101.771 57.2584 101.936 57.2782 102.115C57.298 102.294 57.2517 102.474 57.1479 102.621C57.0403 102.783 55.8564 104.347 52.0896 105.209C51.2592 105.388 50.4068 105.443 49.5604 105.371Z" fill="#C5DFFF"/>
<path d="M57.5259 96.3657C55.0777 97.4808 52.4119 98.0335 49.7232 97.9835C48.0591 97.9999 46.4098 97.6694 44.8801 97.0128C44.3102 96.7774 43.783 96.4495 43.3196 96.0421C43.3196 96.0421 43.3734 95.0715 43.212 91.8898C42.6738 81.8596 47.194 80.5654 50.1537 80.4576C50.8657 80.4553 51.5738 80.5645 52.2523 80.7811C53.371 81.2051 54.3762 81.8836 55.1886 82.7633C56.0011 83.6429 56.5985 84.6996 56.9339 85.8501C57.8487 89.1396 57.5259 96.3657 57.5259 96.3657Z" fill="#6367F6"/>
<path d="M50.9061 86.659C47.516 88.4925 46.1169 87.3061 46.1169 87.3061C46.1169 87.3061 45.3097 90.0564 44.9331 95.5029C44.8792 96.0421 44.8792 96.5814 44.8254 97.0128C44.2555 96.7774 43.7283 96.4495 43.2649 96.0421C43.2649 96.0421 43.3187 95.0715 43.1573 91.8898C42.6192 81.8596 47.1393 80.5654 50.099 80.4576C50.8111 80.4553 51.5191 80.5645 52.1976 80.7811C53.0586 82.2371 54.0272 84.9873 50.9061 86.659Z" fill="#384D89"/>
<path d="M119.625 103.484C119.463 104.346 119.302 105.155 119.086 105.964C117.795 110.979 115.535 115.024 112.36 117.666C103.266 125.27 90.7815 129.314 74.7456 118.906C61.9384 110.602 50.1537 91.7816 45.9025 84.5016C44.8263 82.6681 44.2344 81.5357 44.2344 81.5357C44.2344 81.5357 51.6066 81.1582 63.2299 75.8195C68.9622 73.1333 74.4533 69.958 79.6424 66.3286C90.1357 58.9946 96.2164 52.1461 99.7142 46.8074C103.858 40.552 104.45 36.4536 104.45 36.4536C104.45 36.4536 105.472 38.341 107.248 42.4933C110.759 51.067 113.778 59.8354 116.288 68.7552C120.216 82.3446 121.293 94.3701 119.625 103.484Z" fill="#E1ECFF"/>
<path d="M107.247 42.4935C105.728 45.4811 103.983 48.3475 102.027 51.0678C96.3801 58.7045 89.3748 65.231 81.3635 70.3193C76.2833 73.6639 70.938 76.5857 65.3815 79.0553C55.803 83.3155 49.1842 84.2861 45.8478 84.4479C44.7716 82.6144 44.1797 81.482 44.1797 81.482C44.1797 81.482 51.5519 81.1045 63.1752 75.7658C68.9075 73.0796 74.3986 69.9042 79.5878 66.2749C90.081 58.9409 96.1617 52.0923 99.6595 46.7537C103.803 40.4983 104.395 36.3999 104.395 36.3999C105.451 38.3796 106.403 40.4137 107.247 42.4935Z" fill="#6367F6"/>
<path d="M119.086 105.964C117.795 110.98 115.535 115.024 112.36 117.666C103.266 125.27 90.7815 129.314 74.7456 118.907C61.9384 110.602 50.1537 91.7819 45.9025 84.5019C44.8263 82.6684 44.2344 81.536 44.2344 81.536C44.2344 81.536 51.6066 81.1585 63.2299 75.8198C67.8039 82.938 77.9205 97.6598 87.8756 106.342C99.4451 116.48 112.629 110.494 119.086 105.964Z" fill="#C5DFFF"/>
<path d="M65.3815 79.1093C55.803 83.3695 49.1842 84.3401 45.8478 84.5019C44.7716 82.6684 44.1797 81.536 44.1797 81.536C44.1797 81.536 51.5519 81.1585 63.1752 75.8198C63.8209 76.7905 64.5743 77.9229 65.3815 79.1093Z" fill="#142966"/>
<path d="M118.117 98.2527C116.772 92.6983 114.942 85.688 112.629 78.2462C108.916 66.1668 104.718 56.8376 102.404 52.7931C105.633 47.8859 106.225 45.8906 106.225 45.8906C106.225 45.8906 107.032 47.4006 108.431 50.6361C111.168 57.3452 113.521 64.2049 115.481 71.1819C118.602 81.7514 119.463 91.1345 118.117 98.2527Z" fill="#F8FBFF"/>
<path d="M107.247 42.4935C105.728 45.4811 103.983 48.3475 102.027 51.0678C101.166 49.3961 100.412 47.9401 99.7129 46.7537C103.856 40.4983 104.448 36.3999 104.448 36.3999C104.448 36.3999 105.525 38.3952 107.247 42.4935Z" fill="#384D89"/>
<path d="M90.4023 102.783C90.4023 102.783 85.5592 106.45 75.7117 110.548C72.9673 111.68 70.2767 112.651 67.8552 113.46L67.2094 112.813C60.3215 106.18 54.1332 97.6058 49.9359 91.1347C49.6668 90.7572 49.4516 90.3797 49.2363 90.0561C54.8557 88.5413 60.3443 86.5757 65.6489 84.1782C74.7431 80.1338 77.057 78.3003 77.057 78.3003L90.4023 102.783Z" fill="#E1ECFF"/>
<path d="M88.8963 102.729C88.8963 102.729 84.5375 106.234 75.2819 109.901C72.4299 111.034 69.5779 112.004 67.1564 112.813C60.2685 106.18 54.0801 97.606 49.8828 91.1349L50.7438 90.9191C55.9318 89.4894 61.0046 87.6687 65.9187 85.4726C74.3133 81.6978 76.681 80.4575 76.681 80.4575L88.8963 102.729Z" fill="#6367F6"/>
<path d="M64.895 104.832C64.7197 104.836 64.5484 104.779 64.4107 104.67L58.4914 99.3855L58.1147 100.518C58.0847 100.608 58.0368 100.69 57.974 100.761C57.9112 100.832 57.8348 100.889 57.7493 100.93C57.6638 100.97 57.5711 100.992 57.4766 100.996C57.3822 100.999 57.2881 100.983 57.1999 100.949C57.1103 100.919 57.0278 100.871 56.9572 100.808C56.8866 100.745 56.8295 100.669 56.7892 100.583C56.749 100.498 56.7265 100.405 56.7231 100.31C56.7197 100.215 56.7355 100.121 56.7694 100.033L57.5228 97.8756C57.5658 97.7657 57.6311 97.6658 57.7144 97.5823C57.7977 97.4988 57.8974 97.4334 58.0071 97.3903C58.1284 97.3649 58.2538 97.3663 58.3746 97.3942C58.4954 97.4221 58.6087 97.476 58.7066 97.552L63.9264 102.19L63.6573 100.087C63.6259 99.9298 63.6521 99.767 63.7313 99.6282C63.8104 99.4894 63.9371 99.384 64.0878 99.3316L81.8995 91.6202C81.9877 91.5805 82.0829 91.5588 82.1796 91.5564C82.2763 91.5539 82.3725 91.5707 82.4626 91.6059C82.5527 91.641 82.635 91.6937 82.7046 91.761C82.7742 91.8282 82.8298 91.9087 82.8681 91.9977C82.9077 92.0861 82.9293 92.1815 82.9318 92.2784C82.9342 92.3753 82.9174 92.4717 82.8824 92.562C82.8473 92.6523 82.7947 92.7347 82.7276 92.8045C82.6605 92.8743 82.5802 92.93 82.4914 92.9683L65.164 100.464L65.6484 103.969C65.6722 104.119 65.6487 104.272 65.5811 104.407C65.5135 104.543 65.4053 104.654 65.2717 104.724C65.1519 104.778 65.0251 104.814 64.895 104.832Z" fill="#FFCE94"/>
<path d="M104.448 36.4537C104.448 36.4537 103.641 42.2238 97.4523 50.2588C93.9008 54.8964 88.5196 60.289 80.4479 65.7894C67.2102 74.849 56.7707 78.6777 50.5286 80.3494C48.4538 80.9438 46.3279 81.341 44.1788 81.5358C44.1788 81.5358 30.6721 58.4555 32.8784 37.5323C33.4703 32.0857 35.1384 27.556 37.6676 23.8351C39.4646 21.155 41.7242 18.8176 44.3402 16.9325C51.8201 11.54 61.8828 9.65255 71.6766 10.8389C89.542 13.0499 104.448 36.4537 104.448 36.4537Z" fill="#FEC272"/>
<path d="M104.449 36.4536C104.449 36.4536 104.072 39.0421 102.027 43.1404C100.744 45.6776 99.212 48.0802 97.4532 50.3126C93.9017 54.9502 88.5205 60.3428 80.4487 65.8432C66.1887 75.5499 55.1573 79.2708 49.1842 80.7268C47.5401 81.1405 45.8672 81.4289 44.1797 81.5896C44.1797 81.4278 44.2335 69.0249 64.3591 53.2785C84.5922 37.3704 104.449 36.4536 104.449 36.4536Z" fill="#FCAD4F"/>
<path d="M102.027 43.1406C100.744 45.6778 99.2114 48.0804 97.4526 50.3128C93.9011 54.9504 88.5199 60.343 80.4482 65.8434C66.1881 75.5501 55.1567 79.271 49.1836 80.727C51.4437 75.5501 56.3944 67.8926 67.5334 59.1566C77.6107 51.1681 89.4299 45.6802 102.027 43.1406V43.1406Z" fill="#F99D3A"/>
<path d="M104.449 36.4537C104.449 36.4537 103.641 42.2238 97.453 50.2588C95.5229 46.8848 93.3466 43.6584 90.9418 40.606C90.9418 40.606 83.0315 47.7782 76.5741 42.6552C70.1167 37.4783 74.9598 27.9874 74.9598 27.9874C70.2307 23.3566 64.3033 20.1438 57.8476 18.7121C53.3828 17.7534 48.8478 17.1582 44.2871 16.9325C51.7669 11.54 61.8297 9.65255 71.6234 10.8389C89.5427 13.0499 104.449 36.4537 104.449 36.4537Z" fill="#FFDBB3"/>
<path d="M50.5833 80.3493C48.5085 80.9437 46.3826 81.3409 44.2335 81.5357C44.2335 81.5357 30.7268 58.4554 32.933 37.5321C33.525 32.0856 35.1931 27.5558 37.7223 23.835C36.6592 35.9808 37.9753 48.2177 41.5967 59.8575C43.8721 66.983 46.884 73.8509 50.5833 80.3493Z" fill="#FFDBB3"/>
<path d="M112.036 174.288C112.044 174.631 112.026 174.973 111.982 175.313C111.767 178.494 102.027 179.088 95.2467 179.411C88.5741 179.735 81.5248 177.847 83.9463 175.636L84.0539 175.529C85.7759 174.073 89.1122 172.401 92.8252 171.053C94.972 170.257 97.1642 169.591 99.3902 169.057C102.296 168.356 108.215 166.954 110.153 168.41C110.557 168.731 110.887 169.136 111.121 169.597C111.781 171.069 112.094 172.675 112.036 174.288Z" fill="#6367F6"/>
<path d="M112.036 174.288C112.044 174.63 112.026 174.973 111.982 175.313C111.767 178.494 102.027 179.087 95.2467 179.411C88.5741 179.735 81.5248 177.847 83.9463 175.636C85.3992 176.499 88.5741 177.524 95.1929 177.254C104.233 176.877 109.722 175.367 112.036 174.288Z" fill="#384D89"/>
<path d="M111.067 169.597C110.483 170.114 109.831 170.55 109.13 170.891C106.547 172.185 98.6901 173.587 93.9008 172.778C91.8022 172.401 91.9636 171.754 92.7708 171.053C94.9175 170.257 97.1098 169.591 99.3358 169.057C102.242 168.356 108.161 166.954 110.098 168.41C110.502 168.731 110.833 169.136 111.067 169.597Z" fill="#142966"/>
<path d="M98.96 143.712C101.112 157.517 108.969 168.087 108.969 168.087C108.342 168.898 107.577 169.592 106.709 170.136C105.985 170.59 105.208 170.953 104.395 171.215C103.029 171.586 101.605 171.695 100.198 171.538C99.2894 171.448 98.3898 171.285 97.5071 171.053C97.5071 171.053 84.108 153.743 82.4398 134.006C80.7716 114.269 91.3725 104.347 91.3725 104.347C91.4517 104.303 91.5242 104.249 91.5878 104.185C93.3172 103.117 95.3067 102.547 97.3381 102.537C99.3694 102.528 101.364 103.079 103.103 104.131C103.495 104.34 103.872 104.574 104.234 104.832C108.592 107.69 109.238 110.602 109.238 110.602C107.202 112.487 105.461 114.669 104.072 117.073C101.866 120.848 96.8075 129.907 98.96 143.712Z" fill="#E1ECFF"/>
<path d="M98.9594 143.713C101.112 157.518 108.968 168.087 108.968 168.087C108.342 168.899 107.577 169.592 106.708 170.136C102.78 164.69 93.363 148.188 93.6858 132.496C93.9549 118.152 101.381 108.175 104.287 104.832C108.645 107.69 109.291 110.602 109.291 110.602C107.255 112.487 105.514 114.669 104.125 117.073C101.865 120.848 96.8069 129.908 98.9594 143.713Z" fill="#C5DFFF"/>
<path d="M100.143 171.484C99.2347 171.394 98.3351 171.232 97.4524 170.999C97.4524 170.999 84.0533 153.689 82.3851 133.952C80.7169 114.215 91.3178 104.293 91.3178 104.293C91.397 104.249 91.4696 104.195 91.5331 104.131C89.4882 108.337 84.9143 119.23 85.3448 131.525C85.8829 147.326 92.7169 159.513 97.5062 167.278C98.421 168.842 99.3358 170.244 100.143 171.484Z" fill="#F8FBFF"/>
<path d="M89.9197 157.463C89.8277 157.468 89.7359 157.451 89.6517 157.414C89.5675 157.376 89.4934 157.319 89.4353 157.248C89.2992 157.115 89.2181 156.936 89.2081 156.746C89.1981 156.556 89.26 156.369 89.3815 156.223C90.7314 154.982 92.3535 154.077 94.117 153.581C97.2919 152.61 100.79 153.689 100.951 153.743C101.134 153.803 101.287 153.933 101.377 154.104C101.467 154.274 101.488 154.473 101.435 154.659C101.375 154.843 101.246 154.996 101.075 155.086C100.905 155.176 100.706 155.197 100.521 155.145C100.467 155.145 97.2919 154.174 94.5475 154.983C91.8031 155.846 90.4578 157.194 90.4578 157.248C90.3922 157.325 90.309 157.384 90.2152 157.422C90.1215 157.46 90.0201 157.474 89.9197 157.463Z" fill="#C5DFFF"/>
<path d="M84.3747 140.207C84.2426 140.212 84.1119 140.178 83.9976 140.112C83.8834 140.045 83.7903 139.947 83.729 139.83C83.676 139.746 83.6408 139.652 83.6257 139.553C83.6105 139.455 83.6157 139.355 83.641 139.259C83.6662 139.163 83.7109 139.073 83.7724 138.995C83.8338 138.917 83.9106 138.852 83.9981 138.805C86.1232 137.641 88.4711 136.942 90.886 136.756C93.3156 136.693 95.7045 137.39 97.72 138.751C97.8006 138.806 97.8692 138.876 97.9214 138.958C97.9736 139.04 98.0084 139.132 98.0235 139.228C98.0387 139.324 98.0339 139.423 98.0095 139.517C97.985 139.611 97.9414 139.699 97.8815 139.776C97.8272 139.857 97.757 139.925 97.6751 139.978C97.5932 140.03 97.5014 140.065 97.4054 140.08C97.3095 140.095 97.2114 140.09 97.1174 140.066C97.0234 140.041 96.9355 139.998 96.859 139.938C96.8052 139.938 94.1147 138.05 90.9398 138.212C88.7466 138.377 86.6161 139.022 84.6976 140.099C84.6438 140.207 84.4824 140.207 84.3747 140.207Z" fill="#C5DFFF"/>
<path d="M99.1214 125.969C99.0294 125.973 98.9376 125.956 98.8534 125.919C98.7692 125.881 98.6951 125.825 98.6371 125.753C98.5832 125.699 94.6012 122.086 90.6191 121.601C86.7447 121.115 84.377 122.787 84.377 122.841C84.2182 122.95 84.0238 122.994 83.8336 122.964C83.6435 122.934 83.4721 122.832 83.3546 122.679C83.2458 122.52 83.2019 122.325 83.2319 122.135C83.2619 121.944 83.3636 121.772 83.516 121.655C83.6236 121.547 86.368 119.551 90.8344 120.145C95.2469 120.738 99.4442 124.513 99.6595 124.674C99.7331 124.736 99.7933 124.813 99.8362 124.899C99.8791 124.985 99.9038 125.079 99.9089 125.175C99.9139 125.271 99.8991 125.367 99.8655 125.457C99.8319 125.548 99.78 125.63 99.7133 125.699C99.5465 125.845 99.3407 125.939 99.1214 125.969Z" fill="#C5DFFF"/>
<path d="M146.098 110.656C145.325 112.938 143.833 114.906 141.846 116.264C138.618 118.367 136.788 118.583 136.788 118.583C136.788 118.583 134.689 118.259 134.689 116.911V116.749C134.821 115.75 135.211 114.802 135.819 113.999C137.278 113.745 138.704 113.329 140.071 112.759C141.577 112.004 143.192 109.577 144.376 109.307C144.62 109.263 144.872 109.29 145.101 109.386C145.33 109.482 145.527 109.642 145.667 109.847C145.865 110.083 146.012 110.359 146.098 110.656Z" fill="#E1ECFF"/>
<path d="M146.098 110.656C145.325 112.938 143.833 114.906 141.846 116.264C138.618 118.367 136.788 118.583 136.788 118.583C136.788 118.583 134.689 118.259 134.689 116.911C136.142 116.803 139.586 116.372 142.008 114.431C143.574 113.194 144.828 111.606 145.667 109.793C145.861 110.052 146.007 110.345 146.098 110.656Z" fill="#C5DFFF"/>
<path d="M144.107 110.386C142.628 112.428 140.534 113.941 138.134 114.7C137.16 115.087 136.104 115.217 135.066 115.078C134.794 114.814 134.581 114.494 134.441 114.141C134.302 113.787 134.24 113.408 134.259 113.029C134.313 112.382 134.744 111.681 135.874 111.033C135.874 111.033 138.941 110.656 140.878 106.881C142.815 103.106 142.008 102.729 142.492 101.974C142.815 101.435 143.999 101.489 144.806 101.974C145.2 102.195 145.49 102.563 145.614 102.998C146.098 104.347 146.044 107.744 144.107 110.386Z" fill="#E1ECFF"/>
<path d="M144.107 110.386C142.628 112.428 140.534 113.94 138.134 114.7C137.16 115.087 136.104 115.217 135.066 115.078C134.794 114.814 134.581 114.494 134.441 114.141C134.302 113.787 134.24 113.408 134.259 113.028C136.25 112.921 140.34 112.381 142.331 109.415C143.819 107.208 144.675 104.634 144.806 101.974C145.2 102.195 145.49 102.563 145.614 102.998C146.098 104.346 146.044 107.744 144.107 110.386Z" fill="#C5DFFF"/>
<path d="M140.501 108.714C139.093 110.664 137.091 112.102 134.797 112.813C133.872 113.168 132.871 113.28 131.891 113.136C131.633 112.887 131.432 112.584 131.302 112.248C131.172 111.913 131.116 111.554 131.137 111.195C131.191 110.602 131.622 109.901 132.698 109.308C132.698 109.308 135.604 108.984 137.433 105.371C139.263 101.812 138.51 101.434 138.94 100.679C139.263 100.194 140.339 100.194 141.146 100.679C141.523 100.895 141.81 101.24 141.954 101.65C142.384 102.998 142.33 106.234 140.501 108.714Z" fill="#E1ECFF"/>
<path d="M140.501 108.714C139.093 110.664 137.091 112.102 134.797 112.813C133.872 113.168 132.871 113.28 131.891 113.136C131.633 112.887 131.432 112.584 131.302 112.249C131.172 111.913 131.116 111.554 131.137 111.195C133.021 111.087 136.895 110.602 138.833 107.798C140.224 105.691 141.04 103.255 141.2 100.733C141.577 100.949 141.864 101.294 142.007 101.704C142.244 102.914 142.232 104.159 141.973 105.364C141.714 106.57 141.213 107.709 140.501 108.714Z" fill="#C5DFFF"/>
<path d="M139.048 113.514C139.092 114.831 138.834 116.141 138.294 117.343C137.981 118.032 137.564 118.669 137.057 119.23C137.057 119.23 123.442 124.03 109.128 112.058C101.756 105.91 95.8369 97.8755 91.8548 91.5662C89.7073 88.1909 87.7491 84.6982 85.9894 81.1045C85.9894 81.1045 84.8593 77.5993 86.958 74.5795C87.7454 73.4363 88.8228 72.5242 90.0791 71.9371C92.6082 70.6429 94.7069 70.535 96.375 70.9665C98.0862 71.4182 99.6115 72.3995 100.734 73.7706C100.734 73.7706 102.832 78.4082 105.953 84.1244C109.613 90.7573 114.671 98.8462 119.514 102.621C128.501 109.631 135.98 106.935 135.98 106.935C136.581 107.566 137.122 108.252 137.595 108.984C138.187 110.117 138.994 111.734 139.048 113.514Z" fill="#E1ECFF"/>
<path d="M105.792 84.0164C104.045 86.767 101.431 88.8545 98.3662 89.9482C96.2422 90.7721 94.0149 91.2984 91.7474 91.5121C89.5998 88.1368 87.6416 84.6441 85.8819 81.0505C85.8819 81.0505 83.9447 74.9568 89.9178 71.8291C96.6442 68.3239 100.572 73.6626 100.572 73.6626C100.572 73.6626 102.671 78.3542 105.792 84.0164Z" fill="#C5DFFF"/>
<path d="M138.242 117.289C137.929 117.978 137.511 118.615 137.004 119.176C137.004 119.176 123.39 123.975 109.076 112.004C101.703 105.856 95.7842 97.8214 91.8021 91.5121C89.6545 88.1367 87.6963 84.6441 85.9366 81.0504C85.9366 81.0504 84.8066 77.5452 86.9052 74.5254C88.681 78.5698 96.2685 95.0712 105.901 104.562C116.932 115.401 122.905 116.749 133.506 117.181C135.228 117.235 136.842 117.289 138.242 117.289Z" fill="#C5DFFF"/>
<path d="M137.434 108.93C134.689 109.739 130.868 110.332 126.886 109.092C119.46 106.773 113.38 102.082 107.407 93.0762C102.51 85.6344 97.7743 74.6335 96.2676 70.9126C97.9788 71.3643 99.5041 72.3456 100.626 73.7167C100.626 73.7167 102.725 78.3544 105.846 84.0705C109.505 90.7034 114.564 98.7923 119.407 102.567C128.393 109.577 135.873 106.881 135.873 106.881C136.462 107.509 136.985 108.196 137.434 108.93Z" fill="#F8FBFF"/>
<path d="M100.142 100.464C99.3771 100.466 98.6157 100.357 97.882 100.14C97.6994 100.066 97.553 99.9238 97.4744 99.7429C97.3959 99.5621 97.3914 99.3575 97.4621 99.1734C97.5327 98.9893 97.6728 98.8405 97.8521 98.759C98.0313 98.6775 98.2354 98.67 98.4201 98.738C98.5277 98.7919 101.057 99.6547 104.447 97.8212C106.469 96.6876 107.973 94.8126 108.644 92.5904C108.666 92.4983 108.705 92.4114 108.759 92.3344C108.814 92.2575 108.883 92.1921 108.963 92.1421C109.043 92.092 109.132 92.0582 109.225 92.0426C109.318 92.027 109.413 92.0299 109.505 92.0511C109.597 92.0724 109.684 92.1116 109.761 92.1664C109.838 92.2213 109.903 92.2907 109.953 92.3709C110.003 92.451 110.036 92.5402 110.052 92.6334C110.068 92.7265 110.065 92.8219 110.043 92.914C109.674 94.2269 109.045 95.4521 108.195 96.5173C107.345 97.5825 106.29 98.466 105.093 99.1154C103.589 99.9909 101.882 100.456 100.142 100.464Z" fill="#C5DFFF"/>
<path d="M110.421 112.543C110.222 112.543 110.03 112.464 109.889 112.322C109.747 112.18 109.668 111.988 109.668 111.788C109.668 111.588 109.747 111.396 109.889 111.254C110.03 111.113 110.222 111.033 110.421 111.033C110.475 111.033 113.811 110.979 115.695 108.66C117.632 106.288 117.255 102.944 117.255 102.89C117.245 102.795 117.253 102.698 117.28 102.605C117.306 102.513 117.351 102.427 117.411 102.352C117.471 102.277 117.545 102.214 117.629 102.168C117.713 102.121 117.806 102.092 117.901 102.081C118.092 102.068 118.281 102.127 118.431 102.247C118.58 102.367 118.679 102.539 118.708 102.729C118.708 102.89 119.139 106.719 116.825 109.577C114.511 112.543 110.583 112.543 110.421 112.543Z" fill="#C5DFFF"/>
<path d="M122.258 118.852C122.106 118.853 121.957 118.807 121.832 118.72C121.707 118.634 121.611 118.51 121.559 118.367C121.488 118.181 121.494 117.975 121.575 117.793C121.655 117.611 121.804 117.469 121.989 117.396C122.933 116.981 123.771 116.358 124.441 115.574C125.112 114.79 125.598 113.865 125.864 112.867C126.671 109.523 125.541 107.582 125.487 107.528C125.387 107.362 125.353 107.163 125.393 106.973C125.433 106.783 125.544 106.615 125.702 106.503C125.868 106.403 126.066 106.37 126.256 106.41C126.445 106.45 126.613 106.56 126.725 106.719C126.778 106.827 128.285 109.254 127.263 113.19C126.934 114.418 126.333 115.556 125.503 116.518C124.674 117.479 123.638 118.241 122.473 118.745C122.42 118.852 122.366 118.852 122.258 118.852Z" fill="#C5DFFF"/>
<path d="M106.222 77.5454C106.111 78.0985 105.949 78.6401 105.738 79.1631C104.984 80.9966 103.208 84.0165 99.1725 86.6588C92.9304 90.7033 87.3878 88.9777 87.3878 88.9777C84.8007 85.2793 83.1564 81.0026 82.5985 76.5208C82.1142 72.3685 84.8586 69.1329 88.4102 67.5691C91.047 66.4366 94.1142 66.2209 96.5896 67.2994C102.455 69.9418 106.222 77.5454 106.222 77.5454Z" fill="#6367F6"/>
<path d="M106.225 77.5454C106.114 78.0985 105.952 78.6401 105.741 79.1631C105.741 79.1092 105.687 79.1092 105.687 79.0553C100.682 72.4224 96.7541 71.0743 96.7541 71.0743C96.7541 71.0743 95.3012 74.5255 90.512 72.5303C87.1756 71.1821 87.7676 68.8094 88.4671 67.5691C91.1039 66.4366 94.1711 66.2209 96.6465 67.2994C102.458 69.9418 106.225 77.5454 106.225 77.5454Z" fill="#384D89"/>
<path d="M40.8408 49.0185C40.3574 48.9364 39.861 49.041 39.4516 49.3112C39.0421 49.5814 38.7502 49.9971 38.6345 50.4745C37.9772 53.1969 37.4564 55.9506 37.074 58.7252C36.8049 60.9901 36.6973 62.8775 36.6435 64.1717C36.6296 64.6287 36.7793 65.0756 37.0655 65.4316C37.3517 65.7876 37.7555 66.0293 38.204 66.113C38.456 66.1532 38.7136 66.1411 38.9607 66.0776C39.2079 66.0141 39.4395 65.9006 39.6412 65.7439C39.8429 65.5873 40.0104 65.3909 40.1334 65.1669C40.2564 64.9428 40.3324 64.6959 40.3565 64.4413C40.5212 62.0497 40.8448 59.6717 41.3251 57.3231C41.8632 54.5729 42.2399 52.6316 42.5089 51.3373C42.5777 50.8107 42.4434 50.2775 42.1334 49.8467C41.8234 49.4158 41.3611 49.1196 40.8408 49.0185Z" fill="#6367F6"/>
<path d="M31.5329 54.7884C31.5887 54.5349 31.7009 54.2972 31.8611 54.0932C32.0213 53.8891 32.2253 53.724 32.4581 53.6099C32.6908 53.4959 32.9463 53.436 33.2053 53.4346C33.4644 53.4332 33.7205 53.4905 33.9544 53.602C35.5688 54.3031 37.9365 55.3277 40.1966 56.1366C42.5105 56.9454 44.6629 57.7543 46.0082 58.2936C46.4492 58.4588 46.8138 58.7813 47.0323 59.1992C47.2507 59.6171 47.3076 60.1011 47.1921 60.5585C47.1289 60.8052 47.0168 61.0366 46.8625 61.239C46.7082 61.4413 46.5148 61.6104 46.2938 61.7363C46.0728 61.8621 45.8288 61.942 45.5764 61.9713C45.3239 62.0005 45.0682 61.9786 44.8244 61.9066C42.2618 61.1805 39.7458 60.2981 37.2907 59.2643C35.5495 58.5348 33.8595 57.688 32.2324 56.7297C31.9403 56.5092 31.7186 56.2081 31.5944 55.8634C31.4702 55.5186 31.4488 55.1451 31.5329 54.7884Z" fill="#6367F6"/>
<path d="M63.9791 35.8608C63.3475 35.7675 62.704 35.9153 62.1758 36.2748C61.6477 36.6343 61.2734 37.1793 61.1271 37.8021C60.5352 40.4984 59.6742 45.0282 59.2975 48.5873C59.0285 51.5532 58.867 53.9799 58.867 55.6516C58.8441 56.2388 59.0412 56.8135 59.4196 57.2625C59.798 57.7115 60.3303 58.0025 60.9119 58.0782C61.2392 58.1286 61.5734 58.1102 61.8933 58.0241C62.2131 57.938 62.5116 57.7861 62.7697 57.5782C63.0279 57.3702 63.24 57.1107 63.3926 56.8162C63.5452 56.5216 63.635 56.1985 63.6563 55.8673C63.7639 53.7102 64.0868 50.4208 64.6787 46.6459C65.2706 43.0329 65.7549 40.4984 66.024 38.8267C66.0967 38.4963 66.1007 38.1545 66.0357 37.8226C65.9708 37.4906 65.8382 37.1756 65.6463 36.8973C65.4544 36.619 65.2073 36.3833 64.9205 36.205C64.6336 36.0266 64.3132 35.9094 63.9791 35.8608Z" fill="#6367F6"/>
<path d="M52.034 43.6261C52.1093 43.2998 52.2546 42.9938 52.4596 42.7293C52.6646 42.4649 52.9245 42.2482 53.2214 42.0943C53.5182 41.9404 53.8449 41.853 54.1788 41.8382C54.5127 41.8234 54.8458 41.8814 55.1551 42.0084C57.2537 42.8712 60.321 44.1115 63.2806 45.1361C66.2941 46.1607 69.0923 47.1313 70.8681 47.7784C71.4444 47.9805 71.9242 48.3915 72.2131 48.9305C72.5019 49.4695 72.5788 50.0974 72.4286 50.6904C72.3506 51.0145 72.2088 51.3197 72.0115 51.5881C71.8142 51.8565 71.5654 52.0828 71.2797 52.2536C70.994 52.4243 70.6772 52.5362 70.3478 52.5826C70.0183 52.6291 69.683 52.6091 69.3614 52.5239C66.0314 51.6553 62.7602 50.5745 59.5676 49.2884C57.2956 48.4109 55.0997 47.3467 53.0026 46.1067C52.6248 45.8263 52.3335 45.4448 52.1622 45.0061C51.9908 44.5673 51.9464 44.089 52.034 43.6261Z" fill="#6367F6"/>
<path d="M246.135 138.913C247.957 139.527 249.589 140.605 250.87 142.041C252.861 144.414 253.13 148.243 253.13 148.243L264 143.173C264 143.173 258.511 145.277 256.682 141.61C254.852 137.943 260.933 132.119 260.933 132.119C260.933 132.119 254.207 137.619 251.57 136.81C248.933 136.001 248.502 132.712 248.502 132.712L246.135 138.913Z" fill="#FEC272"/>
<path d="M235.856 137.673L237.793 137.727L240.807 115.617L233.973 114.323L235.856 137.673Z" fill="#D2E9FF"/>
<path d="M240.592 137.78L245.112 117.073L251.623 120.254L241.776 138.32L240.592 137.78Z" fill="#D2E9FF"/>
<path d="M25.2377 33.2721L24.1077 35.7527L0.484375 28.4727L3.65926 19.1436L25.2377 33.2721Z" fill="#FEC272"/>
<path d="M28.7892 25.0756L26.6906 28.0954L0 7.71141L7.3722 0L28.7892 25.0756Z" fill="#FEC272"/>
</g>
<defs>
<clipPath id="clip0_1_3173">
<rect width="264" height="182" fill="white"/>
</clipPath>
</defs>
</svg>
