<svg width="10" height="10" viewBox="0 0 10 10" fill="none" xmlns="http://www.w3.org/2000/svg">
<path fill-rule="evenodd" clip-rule="evenodd" d="M8.61911 7.25778L8.56711 7.31666L7.29094 8.59116V8.59116L7.23246 8.63746V8.63746L7.20462 8.65576L7.16992 8.67586L7.10833 8.70462L7.0534 8.72375V8.72375L7.00286 8.73654L6.92825 8.74737L6.87494 8.74963L6.82185 8.74738L6.78183 8.74274L6.73032 8.7328L6.65915 8.71137V8.71137L6.61045 8.69108V8.69108L6.54309 8.6544V8.6544L6.51762 8.63748V8.63748L6.48143 8.60875L6.43301 8.56658L5.18286 7.31666C4.93876 7.07259 4.93876 6.67688 5.18286 6.43281C5.40818 6.20752 5.76273 6.19019 6.00793 6.38082L6.06681 6.43281L6.24979 6.61563L6.24994 1.875C6.24994 1.55448 6.49121 1.29031 6.80205 1.2542L6.87503 1.25C7.22021 1.25 7.50003 1.52982 7.50003 1.875L7.49979 6.61563L7.68316 6.43281C7.90848 6.20752 8.26302 6.19019 8.50822 6.38082L8.56711 6.43281C8.77365 6.63933 8.80543 6.95442 8.66244 7.19435L8.61911 7.25778V7.25778ZM2.73581 1.38625L2.76783 1.36187L2.81364 1.33272V1.33272L2.8888 1.29595V1.29595L2.98053 1.26654V1.26654L3.03205 1.25661L3.10455 1.25006L3.17847 1.25198L3.25307 1.2628L3.32316 1.28171V1.28171L3.35854 1.29473L3.42013 1.32348L3.48267 1.36189V1.36189L3.51374 1.3851V1.3851L3.56719 1.43278L4.81732 2.68269L4.86932 2.74157C5.04409 2.96631 5.04409 3.28292 4.86932 3.50766L4.81732 3.56654L4.75844 3.61853C4.53367 3.79327 4.21702 3.79327 3.99225 3.61853L3.93337 3.56654L3.75 3.38372L3.75025 8.12435C3.75025 8.44487 3.50897 8.70904 3.19814 8.74514L3.12525 8.74935L3.05226 8.74514C2.76533 8.71182 2.53768 8.48416 2.50435 8.19724L2.50015 8.12435L2.5 3.38372L2.31703 3.56654L2.25814 3.61853C2.01294 3.80916 1.65839 3.79183 1.43307 3.56654C1.20775 3.34124 1.19042 2.98674 1.38108 2.74157L1.43307 2.68269L2.68321 1.43278L2.73581 1.38625Z" fill="#2168F5"/>
<path fill-rule="evenodd" clip-rule="evenodd" d="M8.61911 7.25778L8.56711 7.31666L7.29094 8.59116V8.59116L7.23246 8.63746V8.63746L7.20462 8.65576L7.16992 8.67586L7.10833 8.70462L7.0534 8.72375V8.72375L7.00286 8.73654L6.92825 8.74737L6.87494 8.74963L6.82185 8.74738L6.78183 8.74274L6.73032 8.7328L6.65915 8.71137V8.71137L6.61045 8.69108V8.69108L6.54309 8.6544V8.6544L6.51762 8.63748V8.63748L6.48143 8.60875L6.43301 8.56658L5.18286 7.31666C4.93876 7.07259 4.93876 6.67688 5.18286 6.43281C5.40818 6.20752 5.76273 6.19019 6.00793 6.38082L6.06681 6.43281L6.24979 6.61563L6.24994 1.875C6.24994 1.55448 6.49121 1.29031 6.80205 1.2542L6.87503 1.25C7.22021 1.25 7.50003 1.52982 7.50003 1.875L7.49979 6.61563L7.68316 6.43281C7.90848 6.20752 8.26302 6.19019 8.50822 6.38082L8.56711 6.43281C8.77365 6.63933 8.80543 6.95442 8.66244 7.19435L8.61911 7.25778V7.25778ZM2.73581 1.38625L2.76783 1.36187L2.81364 1.33272V1.33272L2.8888 1.29595V1.29595L2.98053 1.26654V1.26654L3.03205 1.25661L3.10455 1.25006L3.17847 1.25198L3.25307 1.2628L3.32316 1.28171V1.28171L3.35854 1.29473L3.42013 1.32348L3.48267 1.36189V1.36189L3.51374 1.3851V1.3851L3.56719 1.43278L4.81732 2.68269L4.86932 2.74157C5.04409 2.96631 5.04409 3.28292 4.86932 3.50766L4.81732 3.56654L4.75844 3.61853C4.53367 3.79327 4.21702 3.79327 3.99225 3.61853L3.93337 3.56654L3.75 3.38372L3.75025 8.12435C3.75025 8.44487 3.50897 8.70904 3.19814 8.74514L3.12525 8.74935L3.05226 8.74514C2.76533 8.71182 2.53768 8.48416 2.50435 8.19724L2.50015 8.12435L2.5 3.38372L2.31703 3.56654L2.25814 3.61853C2.01294 3.80916 1.65839 3.79183 1.43307 3.56654C1.20775 3.34124 1.19042 2.98674 1.38108 2.74157L1.43307 2.68269L2.68321 1.43278L2.73581 1.38625Z" fill="#8A909B"/>
</svg>
