<svg width="32" height="32" viewBox="0 0 32 32" fill="none" xmlns="http://www.w3.org/2000/svg">
<path d="M3.85733 16.2194C3.85733 15.6892 3.47023 15.3168 2.9946 15.3168C2.51897 15.3168 2.13187 15.6957 2.13187 16.2194C2.13187 16.7369 2.51897 17.1217 2.9946 17.1217C3.47081 17.1217 3.85733 16.7496 3.85733 16.2194ZM3.86427 17.797V17.3868C3.62964 17.6708 3.28015 17.8471 2.8621 17.8471C1.993 17.8471 1.33337 17.153 1.33337 16.2194C1.33337 15.2917 2.01817 14.5852 2.88148 14.5852C3.28767 14.5852 3.62993 14.7621 3.86456 15.0393V14.6418H4.64484V17.797H3.86427ZM8.43424 17.0964C8.16113 17.0964 8.08533 16.9955 8.08533 16.7307V15.3298H8.58671V14.6415H8.08533V13.8719H7.28567V14.6415H6.25572V14.4499C6.25572 14.1845 6.35756 14.0833 6.63675 14.0833H6.81207V13.4715H6.42728C5.76765 13.4715 5.45693 13.6861 5.45693 14.3422V14.6412H5.01284V15.3298H5.45693V17.7967H6.25659V15.3298H7.28654V16.8758C7.28654 17.5195 7.53361 17.7973 8.18051 17.7973H8.59307V17.0967H8.43395L8.43424 17.0964ZM11.3016 15.9351C11.2446 15.5253 10.9081 15.2791 10.515 15.2791C10.1215 15.2791 9.79805 15.5188 9.71589 15.9351H11.3013H11.3016ZM9.70924 16.4276C9.76652 16.8944 10.1027 17.1598 10.5277 17.1598C10.8639 17.1598 11.1243 17.0017 11.2761 16.7493H12.0949C11.9042 17.4181 11.3016 17.8471 10.5086 17.8471C9.55098 17.8471 8.87862 17.1786 8.87862 16.2256C8.87862 15.2729 9.58917 14.5849 10.5283 14.5849C11.4735 14.5849 12.1583 15.2791 12.1583 16.2256C12.1583 16.2952 12.1522 16.3642 12.1395 16.4276H9.70924ZM17.2418 16.2194C17.2418 15.7081 16.8547 15.3168 16.379 15.3168C15.9034 15.3168 15.5163 15.6957 15.5163 16.2194C15.5163 16.7369 15.9034 17.1217 16.379 17.1217C16.8547 17.1217 17.2418 16.7307 17.2418 16.2194ZM14.7294 14.6418H15.5096V15.052C15.744 14.7615 16.0929 14.5852 16.5118 14.5852C17.3682 14.5852 18.0403 15.2858 18.0403 16.2129C18.0403 17.1409 17.3555 17.8477 16.4927 17.8477C16.0929 17.8477 15.7631 17.6897 15.5351 17.4249V19.0953H14.7294V14.6418ZM20.8524 16.2194C20.8524 15.6892 20.4658 15.3168 19.9896 15.3168C19.514 15.3168 19.1269 15.6957 19.1269 16.2194C19.1269 16.7369 19.514 17.1217 19.9896 17.1217C20.4658 17.1217 20.8524 16.7496 20.8524 16.2194ZM20.8593 17.797V17.3868C20.6247 17.6708 20.2752 17.8471 19.8571 17.8471C18.988 17.8471 18.3284 17.153 18.3284 16.2194C18.3284 15.2917 19.0132 14.5852 19.8762 14.5852C20.2821 14.5852 20.6247 14.7621 20.8593 15.0393V14.6418H21.6393V17.797H20.8593ZM13.3233 14.9511C13.3233 14.9511 13.5218 14.5855 14.0081 14.5855C14.2161 14.5855 14.3507 14.6563 14.3507 14.6563V15.4613C14.3507 15.4613 14.0573 15.2811 13.7877 15.3174C13.518 15.3537 13.3476 15.5999 13.3485 15.9295V17.7976H12.543V14.6424H13.3233V14.9511ZM25.2829 14.6418L23.3132 19.0853H22.4826L23.256 17.3674L21.9483 14.6418H22.8897L23.6546 16.463L24.4395 14.6418H25.2829ZM31.5705 14.5702L29.6176 13.4494C29.0448 13.1203 28.3282 13.5313 28.3282 14.1901V14.3051C28.3282 14.4089 28.384 14.505 28.4743 14.5566L28.8431 14.7683C28.9514 14.8308 29.0862 14.753 29.0862 14.6289V14.3428C29.0862 14.1998 29.2418 14.1102 29.3662 14.1818L31.0575 15.1531C31.1819 15.2245 31.1819 15.4032 31.0575 15.4746L29.3662 16.4456C29.2418 16.5169 29.0865 16.4279 29.0865 16.2846V16.1324C29.0865 15.474 28.3698 15.062 27.7961 15.3917L25.8433 16.5128C25.7131 16.5857 25.6045 16.6929 25.5288 16.8232C25.4532 16.9535 25.4133 17.1021 25.4133 17.2535C25.4133 17.4049 25.4532 17.5536 25.5288 17.6839C25.6045 17.8142 25.7131 17.9214 25.8433 17.9943L27.7961 19.1151C28.3693 19.4442 29.0865 19.0331 29.0865 18.3744V18.2593C29.0861 18.208 29.0724 18.1576 29.0467 18.1134C29.0209 18.0692 28.9842 18.0328 28.9401 18.0078L28.5715 17.7955C28.4633 17.7333 28.3282 17.8111 28.3282 17.9353V18.2213C28.3282 18.3643 28.1725 18.4537 28.0484 18.382L26.3568 17.411C26.3286 17.3951 26.305 17.3718 26.2887 17.3435C26.2723 17.3152 26.2636 17.283 26.2636 17.2501C26.2636 17.2173 26.2723 17.185 26.2887 17.1567C26.305 17.1285 26.3286 17.1052 26.3568 17.0893L28.0484 16.118C28.1728 16.0463 28.3282 16.1357 28.3282 16.279V16.4311C28.3282 17.0896 29.0445 17.5015 29.6176 17.1719L31.5705 16.0507C31.7006 15.9779 31.809 15.8708 31.8846 15.7406C31.9602 15.6104 32 15.4619 32 15.3106C32 15.1593 31.9602 15.0108 31.8846 14.8806C31.809 14.7504 31.7006 14.6433 31.5705 14.5705V14.5702Z" fill="black"/>
</svg>
