<svg width="32" height="32" viewBox="0 0 32 32" fill="none" xmlns="http://www.w3.org/2000/svg">
<path fill-rule="evenodd" clip-rule="evenodd" d="M25.261 8.18182H5.11396C3.94967 8.18182 3 9.1315 3 10.2958V21.1661C3 22.3304 3.94967 23.28 5.11396 23.28H19.7668V22.5879C19.7668 22.1748 19.8902 21.7938 20.0995 21.4773H7.45327C7.464 21.3914 7.46937 21.3002 7.46937 21.2144C7.46937 20.034 6.51433 19.0736 5.32858 19.0736C5.14616 19.0736 4.9691 19.095 4.79741 19.1379V12.5761C4.9691 12.619 5.14616 12.6405 5.32858 12.6405C6.50896 12.6405 7.46937 11.6854 7.46937 10.4997C7.46937 10.3172 7.44791 10.1456 7.40498 9.97923H23.0934C23.0719 10.108 23.0558 10.2368 23.0558 10.3709C23.0558 11.5513 24.0109 12.5117 25.1966 12.5117C25.3254 12.5117 25.4488 12.501 25.5722 12.4795V16.3211C26.2321 16.4016 26.8438 16.6269 27.375 16.9703V10.2904C27.375 9.12613 26.4253 8.18182 25.261 8.18182ZM10.415 15.7256C10.415 18.2795 12.4861 20.3505 15.04 20.3505C17.5939 20.3505 19.665 18.2795 19.665 15.7256C19.665 13.1716 17.5939 11.1006 15.04 11.1006C12.4861 11.1006 10.415 13.1716 10.415 15.7256ZM15.4478 12.957C15.4478 13.236 15.4478 13.2414 15.7268 13.2843C15.9414 13.3165 16.1453 13.3809 16.3438 13.4667C16.4511 13.515 16.494 13.5901 16.4618 13.7082L16.4618 13.7084L16.4618 13.7084C16.4135 13.88 16.3652 14.0516 16.3116 14.2232C16.2579 14.3842 16.2097 14.4057 16.0541 14.3306C15.7429 14.1803 15.4156 14.1159 15.0776 14.1374C14.9864 14.1428 14.9005 14.1535 14.8147 14.191C14.5196 14.3198 14.4713 14.6471 14.7234 14.851C14.8522 14.9529 14.9971 15.0281 15.1473 15.0924C15.4102 15.1997 15.6731 15.3071 15.9253 15.4412C16.7194 15.8811 16.934 16.8791 16.376 17.5551C16.1721 17.802 15.9092 17.9683 15.6034 18.0488C15.4692 18.0863 15.4102 18.1561 15.4156 18.2956C15.4192 18.3852 15.418 18.4772 15.4168 18.5684L15.4168 18.5686C15.4162 18.6138 15.4156 18.6589 15.4156 18.7033C15.4156 18.8267 15.3512 18.8911 15.2332 18.8911C15.0883 18.8965 14.9381 18.8965 14.7932 18.8911C14.6644 18.8911 14.6054 18.816 14.6 18.6872C14.6 18.5853 14.6 18.4887 14.5947 18.3868C14.5947 18.1668 14.5839 18.1561 14.3747 18.1239C14.1011 18.081 13.8382 18.0166 13.5913 17.8985C13.3982 17.802 13.3767 17.7537 13.4304 17.5498C13.4518 17.4747 13.4733 17.3983 13.4947 17.3219L13.4948 17.3218C13.5162 17.2453 13.5377 17.1688 13.5592 17.0937C13.6128 16.9167 13.6611 16.8952 13.8221 16.9811C14.0957 17.1259 14.3908 17.2064 14.6913 17.244C14.8898 17.2708 15.0829 17.2493 15.2654 17.1688C15.6034 17.0186 15.657 16.6269 15.3727 16.3909C15.2761 16.3104 15.1634 16.2514 15.0454 16.1977C14.9632 16.1625 14.8802 16.1293 14.7972 16.0961C14.577 16.0079 14.3574 15.92 14.1547 15.7953C13.6987 15.5217 13.4089 15.1461 13.4411 14.5881C13.4787 13.9603 13.8328 13.5687 14.4123 13.3594L14.4317 13.3524C14.6486 13.2737 14.6537 13.2718 14.6537 13.0268V12.7746C14.6591 12.5868 14.6913 12.5546 14.879 12.5492H15.0507C15.2493 12.5546 15.3485 12.5573 15.3982 12.6083C15.4478 12.6593 15.4478 12.7585 15.4478 12.957ZM25.5 27.8182C25.9971 27.8182 26.4 27.4152 26.4 26.9182V22.2652L28.0959 23.9545C28.4468 24.3041 29.0146 24.3036 29.3649 23.9533C29.7157 23.6025 29.7157 23.0338 29.3649 22.6831L26.2071 19.5253C25.8166 19.1348 25.1834 19.1348 24.7929 19.5253L21.6351 22.6831C21.2843 23.0338 21.2843 23.6025 21.6351 23.9533C21.9854 24.3036 22.5532 24.3041 22.9041 23.9545L24.6 22.2652V26.9182C24.6 27.4152 25.0029 27.8182 25.5 27.8182Z" fill="#000000"/>
</svg>
