<svg width="16" height="16" viewBox="0 0 16 16" fill="none" xmlns="http://www.w3.org/2000/svg">
<g id="Truck">
<g id="Icon">
<path d="M6.40009 13.2002C6.40009 13.8629 5.86284 14.4002 5.20009 14.4002C4.53735 14.4002 4.0001 13.8629 4.0001 13.2002C4.0001 12.5375 4.53735 12.0002 5.20009 12.0002C5.86284 12.0002 6.40009 12.5375 6.40009 13.2002Z" fill="#5A607D"/>
<path d="M12.0001 13.2002C12.0001 13.8629 11.4628 14.4002 10.8001 14.4002C10.1374 14.4002 9.60009 13.8629 9.60009 13.2002C9.60009 12.5375 10.1374 12.0002 10.8001 12.0002C11.4628 12.0002 12.0001 12.5375 12.0001 13.2002Z" fill="#5A607D"/>
<path d="M2.4001 3.2002C1.95827 3.2002 1.6001 3.55837 1.6001 4.0002V12.0002C1.6001 12.442 1.95827 12.8002 2.4001 12.8002H3.2401C3.42541 11.8873 4.23251 11.2002 5.20009 11.2002C6.16768 11.2002 6.97478 11.8873 7.16009 12.8002H8.00009C8.44192 12.8002 8.80009 12.442 8.80009 12.0002V4.0002C8.80009 3.55837 8.44192 3.2002 8.00009 3.2002H2.4001Z" fill="#5A607D"/>
<path d="M11.2001 5.6002C10.7583 5.6002 10.4001 5.95837 10.4001 6.4002V11.2402C10.5293 11.214 10.6631 11.2002 10.8001 11.2002C11.7677 11.2002 12.5748 11.8873 12.7601 12.8002H13.6001C14.0419 12.8002 14.4001 12.442 14.4001 12.0002V8.0002C14.4001 7.78802 14.3158 7.58454 14.1658 7.43451L12.5658 5.83451C12.4157 5.68448 12.2123 5.6002 12.0001 5.6002H11.2001Z" fill="#5A607D"/>
</g>
</g>
</svg>
