<svg width="300" height="280" viewBox="0 0 300 280" fill="none" xmlns="http://www.w3.org/2000/svg">
<mask id="mask0_1215_19537" style="mask-type:alpha" maskUnits="userSpaceOnUse" x="0" y="0" width="300" height="280">
<rect width="300" height="280" rx="20" fill="black"/>
</mask>
<g mask="url(#mask0_1215_19537)">
<rect x="-294" width="594" height="280" rx="20" fill="#F9F9FA"/>
<rect x="60.8102" y="57.5" width="0.962733" height="177" fill="#C1C2D0"/>
<rect x="97.9957" y="57.5" width="0.962733" height="177" fill="#C1C2D0"/>
<rect x="135.181" y="57.5" width="0.962733" height="177" fill="#C1C2D0"/>
<rect x="172.367" y="57.5" width="0.962733" height="177" fill="#C1C2D0"/>
<rect x="209.552" y="57.5" width="0.962733" height="177" fill="#C1C2D0"/>
<rect x="246.738" y="57.5" width="0.962733" height="177" fill="#C1C2D0"/>
<rect x="283.924" y="57.5" width="0.962733" height="177" fill="#C1C2D0"/>
<path d="M55.9683 248.68H56.9727L59.5347 255.055L62.0913 248.68H63.1011L59.9214 256.5H59.1372L55.9683 248.68ZM55.6406 248.68H56.5269L56.6719 253.449V256.5H55.6406V248.68ZM62.5371 248.68H63.4233V256.5H62.3921V253.449L62.5371 248.68ZM64.8306 253.659V253.535C64.8306 253.116 64.8914 252.728 65.0132 252.37C65.1349 252.008 65.3104 251.695 65.5396 251.43C65.7687 251.161 66.0462 250.953 66.3721 250.807C66.6979 250.656 67.0632 250.581 67.4678 250.581C67.876 250.581 68.243 250.656 68.5689 250.807C68.8983 250.953 69.1776 251.161 69.4067 251.43C69.6395 251.695 69.8167 252.008 69.9385 252.37C70.0602 252.728 70.1211 253.116 70.1211 253.535V253.659C70.1211 254.078 70.0602 254.466 69.9385 254.824C69.8167 255.182 69.6395 255.496 69.4067 255.764C69.1776 256.029 68.9001 256.237 68.5742 256.387C68.252 256.534 67.8867 256.607 67.4785 256.607C67.0703 256.607 66.7033 256.534 66.3774 256.387C66.0516 256.237 65.7723 256.029 65.5396 255.764C65.3104 255.496 65.1349 255.182 65.0132 254.824C64.8914 254.466 64.8306 254.078 64.8306 253.659ZM65.8242 253.535V253.659C65.8242 253.949 65.8582 254.223 65.9263 254.48C65.9943 254.735 66.0964 254.96 66.2324 255.157C66.3721 255.354 66.5457 255.51 66.7534 255.625C66.9611 255.736 67.2028 255.791 67.4785 255.791C67.7507 255.791 67.9888 255.736 68.1929 255.625C68.4006 255.51 68.5724 255.354 68.7085 255.157C68.8446 254.96 68.9466 254.735 69.0147 254.48C69.0863 254.223 69.1221 253.949 69.1221 253.659V253.535C69.1221 253.249 69.0863 252.978 69.0147 252.724C68.9466 252.466 68.8428 252.239 68.7031 252.042C68.5671 251.841 68.3952 251.684 68.1875 251.569C67.9834 251.455 67.7435 251.397 67.4678 251.397C67.1956 251.397 66.9557 251.455 66.7481 251.569C66.544 251.684 66.3721 251.841 66.2324 252.042C66.0964 252.239 65.9943 252.466 65.9263 252.724C65.8582 252.978 65.8242 253.249 65.8242 253.535ZM72.3608 251.929V256.5H71.3672V250.688H72.3071L72.3608 251.929ZM72.1245 253.374L71.7109 253.358C71.7145 252.96 71.7736 252.593 71.8882 252.257C72.0028 251.917 72.1639 251.621 72.3716 251.371C72.5793 251.12 72.8263 250.927 73.1128 250.791C73.4028 250.651 73.7233 250.581 74.0742 250.581C74.3607 250.581 74.6185 250.62 74.8477 250.699C75.0768 250.774 75.272 250.896 75.4331 251.064C75.5978 251.233 75.7232 251.451 75.8091 251.72C75.895 251.985 75.938 252.309 75.938 252.692V256.5H74.939V252.681C74.939 252.377 74.8942 252.133 74.8047 251.951C74.7152 251.764 74.5845 251.63 74.4126 251.548C74.2407 251.462 74.0295 251.419 73.7788 251.419C73.5317 251.419 73.3062 251.471 73.1021 251.575C72.9015 251.679 72.7279 251.822 72.5811 252.004C72.4378 252.187 72.325 252.396 72.2427 252.633C72.1639 252.866 72.1245 253.113 72.1245 253.374Z" fill="#C6C8D5"/>
<path d="M105.075 248.68V256.5H104.054V248.68H105.075ZM107.588 248.68V249.528H101.546V248.68H107.588ZM111.638 255.157V250.688H112.637V256.5H111.687L111.638 255.157ZM111.826 253.933L112.24 253.922C112.24 254.309 112.199 254.667 112.116 254.996C112.038 255.322 111.909 255.605 111.73 255.845C111.551 256.085 111.316 256.273 111.026 256.409C110.736 256.541 110.383 256.607 109.968 256.607C109.685 256.607 109.425 256.566 109.189 256.484C108.956 256.402 108.756 256.274 108.587 256.103C108.419 255.931 108.289 255.707 108.195 255.431C108.106 255.155 108.061 254.824 108.061 254.438V250.688H109.055V254.448C109.055 254.71 109.083 254.926 109.141 255.098C109.202 255.266 109.282 255.401 109.382 255.501C109.486 255.598 109.601 255.666 109.726 255.705C109.855 255.744 109.988 255.764 110.124 255.764C110.546 255.764 110.881 255.684 111.128 255.522C111.375 255.358 111.552 255.138 111.66 254.862C111.771 254.583 111.826 254.273 111.826 253.933ZM116.564 256.607C116.159 256.607 115.792 256.539 115.462 256.403C115.137 256.264 114.856 256.069 114.619 255.818C114.386 255.567 114.207 255.27 114.082 254.926C113.957 254.583 113.894 254.207 113.894 253.798V253.573C113.894 253.1 113.964 252.679 114.104 252.311C114.243 251.938 114.433 251.623 114.673 251.365C114.913 251.107 115.185 250.912 115.489 250.78C115.794 250.647 116.109 250.581 116.435 250.581C116.85 250.581 117.208 250.653 117.509 250.796C117.813 250.939 118.062 251.14 118.255 251.397C118.449 251.652 118.592 251.952 118.685 252.3C118.778 252.644 118.825 253.02 118.825 253.428V253.874H114.485V253.062H117.831V252.987C117.817 252.729 117.763 252.479 117.67 252.235C117.58 251.992 117.437 251.791 117.24 251.634C117.043 251.476 116.775 251.397 116.435 251.397C116.209 251.397 116.001 251.446 115.812 251.542C115.622 251.636 115.459 251.775 115.323 251.961C115.187 252.148 115.081 252.375 115.006 252.644C114.931 252.912 114.893 253.222 114.893 253.573V253.798C114.893 254.074 114.931 254.334 115.006 254.577C115.085 254.817 115.198 255.028 115.344 255.211C115.495 255.394 115.676 255.537 115.887 255.641C116.102 255.744 116.345 255.796 116.617 255.796C116.968 255.796 117.265 255.725 117.509 255.582C117.752 255.438 117.965 255.247 118.148 255.007L118.75 255.485C118.624 255.675 118.465 255.855 118.272 256.027C118.078 256.199 117.84 256.339 117.557 256.446C117.278 256.554 116.947 256.607 116.564 256.607Z" fill="#C6C8D5"/>
<path d="M146.787 254.137L148.339 248.68H149.091L148.656 250.801L146.986 256.5H146.239L146.787 254.137ZM145.181 248.68L146.416 254.029L146.787 256.5H146.046L144.15 248.68H145.181ZM151.1 254.024L152.308 248.68H153.345L151.454 256.5H150.713L151.1 254.024ZM149.204 248.68L150.713 254.137L151.261 256.5H150.514L148.903 250.801L148.463 248.68H149.204ZM156.584 256.607C156.179 256.607 155.812 256.539 155.483 256.403C155.157 256.264 154.876 256.069 154.639 255.818C154.407 255.567 154.228 255.27 154.102 254.926C153.977 254.583 153.914 254.207 153.914 253.798V253.573C153.914 253.1 153.984 252.679 154.124 252.311C154.263 251.938 154.453 251.623 154.693 251.365C154.933 251.107 155.205 250.912 155.509 250.78C155.814 250.647 156.129 250.581 156.455 250.581C156.87 250.581 157.228 250.653 157.529 250.796C157.833 250.939 158.082 251.14 158.276 251.397C158.469 251.652 158.612 251.952 158.705 252.3C158.798 252.644 158.845 253.02 158.845 253.428V253.874H154.505V253.062H157.851V252.987C157.837 252.729 157.783 252.479 157.69 252.235C157.601 251.992 157.457 251.791 157.26 251.634C157.063 251.476 156.795 251.397 156.455 251.397C156.229 251.397 156.022 251.446 155.832 251.542C155.642 251.636 155.479 251.775 155.343 251.961C155.207 252.148 155.101 252.375 155.026 252.644C154.951 252.912 154.913 253.222 154.913 253.573V253.798C154.913 254.074 154.951 254.334 155.026 254.577C155.105 254.817 155.218 255.028 155.364 255.211C155.515 255.394 155.696 255.537 155.907 255.641C156.122 255.744 156.365 255.796 156.637 255.796C156.988 255.796 157.286 255.725 157.529 255.582C157.772 255.438 157.986 255.247 158.168 255.007L158.77 255.485C158.644 255.675 158.485 255.855 158.292 256.027C158.098 256.199 157.86 256.339 157.577 256.446C157.298 256.554 156.967 256.607 156.584 256.607ZM163.668 255.372V248.25H164.667V256.5H163.754L163.668 255.372ZM159.758 253.659V253.546C159.758 253.102 159.812 252.699 159.919 252.337C160.03 251.972 160.186 251.659 160.386 251.397C160.591 251.136 160.832 250.936 161.112 250.796C161.394 250.653 161.709 250.581 162.057 250.581C162.422 250.581 162.741 250.646 163.013 250.774C163.289 250.9 163.521 251.084 163.711 251.328C163.904 251.568 164.057 251.858 164.168 252.198C164.279 252.538 164.356 252.923 164.399 253.353V253.847C164.359 254.273 164.282 254.656 164.168 254.996C164.057 255.336 163.904 255.626 163.711 255.866C163.521 256.106 163.289 256.291 163.013 256.419C162.737 256.545 162.415 256.607 162.046 256.607C161.706 256.607 161.394 256.534 161.112 256.387C160.832 256.24 160.591 256.035 160.386 255.77C160.186 255.505 160.03 255.193 159.919 254.835C159.812 254.473 159.758 254.081 159.758 253.659ZM160.757 253.546V253.659C160.757 253.949 160.786 254.221 160.843 254.475C160.904 254.729 160.997 254.953 161.122 255.146C161.248 255.34 161.407 255.492 161.6 255.603C161.794 255.71 162.025 255.764 162.293 255.764C162.623 255.764 162.893 255.694 163.104 255.555C163.319 255.415 163.491 255.231 163.62 255.001C163.749 254.772 163.849 254.523 163.921 254.255V252.96C163.878 252.764 163.815 252.574 163.733 252.391C163.654 252.205 163.55 252.04 163.421 251.897C163.296 251.75 163.14 251.634 162.954 251.548C162.771 251.462 162.555 251.419 162.304 251.419C162.032 251.419 161.797 251.476 161.6 251.591C161.407 251.702 161.248 251.856 161.122 252.053C160.997 252.246 160.904 252.472 160.843 252.729C160.786 252.984 160.757 253.256 160.757 253.546Z" fill="#C6C8D5"/>
<path d="M194.164 248.68V256.5H193.143V248.68H194.164ZM196.677 248.68V249.528H190.635V248.68H196.677ZM198.681 248.25V256.5H197.687V248.25H198.681ZM198.445 253.374L198.031 253.358C198.035 252.96 198.094 252.593 198.208 252.257C198.323 251.917 198.484 251.621 198.692 251.371C198.899 251.12 199.146 250.927 199.433 250.791C199.723 250.651 200.043 250.581 200.394 250.581C200.681 250.581 200.939 250.62 201.168 250.699C201.397 250.774 201.592 250.896 201.753 251.064C201.918 251.233 202.043 251.451 202.129 251.72C202.215 251.985 202.258 252.309 202.258 252.692V256.5H201.259V252.681C201.259 252.377 201.214 252.133 201.125 251.951C201.035 251.764 200.905 251.63 200.733 251.548C200.561 251.462 200.35 251.419 200.099 251.419C199.852 251.419 199.626 251.471 199.422 251.575C199.222 251.679 199.048 251.822 198.901 252.004C198.758 252.187 198.645 252.396 198.563 252.633C198.484 252.866 198.445 253.113 198.445 253.374ZM207.302 255.157V250.688H208.301V256.5H207.35L207.302 255.157ZM207.49 253.933L207.903 253.922C207.903 254.309 207.862 254.667 207.78 254.996C207.701 255.322 207.572 255.605 207.393 255.845C207.214 256.085 206.979 256.273 206.689 256.409C206.399 256.541 206.046 256.607 205.631 256.607C205.348 256.607 205.089 256.566 204.852 256.484C204.62 256.402 204.419 256.274 204.251 256.103C204.082 255.931 203.952 255.707 203.859 255.431C203.769 255.155 203.724 254.824 203.724 254.438V250.688H204.718V254.448C204.718 254.71 204.747 254.926 204.804 255.098C204.865 255.266 204.945 255.401 205.046 255.501C205.149 255.598 205.264 255.666 205.389 255.705C205.518 255.744 205.651 255.764 205.787 255.764C206.209 255.764 206.544 255.684 206.791 255.522C207.038 255.358 207.216 255.138 207.323 254.862C207.434 254.583 207.49 254.273 207.49 253.933Z" fill="#C6C8D5"/>
<path d="M235.855 248.68V256.5H234.819V248.68H235.855ZM239.132 252.198V253.046H235.63V252.198H239.132ZM239.663 248.68V249.528H235.63V248.68H239.663ZM241.602 251.602V256.5H240.609V250.688H241.576L241.602 251.602ZM243.418 250.656L243.412 251.58C243.33 251.562 243.251 251.551 243.176 251.548C243.105 251.541 243.022 251.537 242.929 251.537C242.7 251.537 242.498 251.573 242.322 251.645C242.147 251.716 241.998 251.816 241.876 251.945C241.755 252.074 241.658 252.228 241.586 252.407C241.518 252.583 241.473 252.776 241.452 252.987L241.173 253.148C241.173 252.798 241.207 252.468 241.275 252.16C241.346 251.852 241.456 251.58 241.602 251.344C241.749 251.104 241.935 250.918 242.161 250.785C242.39 250.649 242.662 250.581 242.977 250.581C243.049 250.581 243.131 250.59 243.224 250.608C243.318 250.622 243.382 250.638 243.418 250.656ZM245.416 250.688V256.5H244.417V250.688H245.416ZM244.342 249.147C244.342 248.986 244.39 248.85 244.487 248.739C244.587 248.628 244.734 248.572 244.927 248.572C245.117 248.572 245.262 248.628 245.362 248.739C245.466 248.85 245.518 248.986 245.518 249.147C245.518 249.301 245.466 249.433 245.362 249.544C245.262 249.652 245.117 249.706 244.927 249.706C244.734 249.706 244.587 249.652 244.487 249.544C244.39 249.433 244.342 249.301 244.342 249.147Z" fill="#C6C8D5"/>
<path d="M276.531 254.523C276.531 254.341 276.503 254.18 276.445 254.04C276.392 253.897 276.295 253.768 276.155 253.653C276.019 253.539 275.829 253.43 275.586 253.326C275.346 253.222 275.042 253.116 274.673 253.009C274.286 252.894 273.937 252.767 273.625 252.627C273.314 252.484 273.047 252.321 272.825 252.139C272.603 251.956 272.433 251.747 272.315 251.51C272.197 251.274 272.138 251.004 272.138 250.699C272.138 250.395 272.2 250.114 272.326 249.856C272.451 249.598 272.63 249.374 272.863 249.185C273.099 248.991 273.38 248.841 273.706 248.733C274.032 248.626 274.395 248.572 274.796 248.572C275.384 248.572 275.881 248.685 276.289 248.911C276.701 249.133 277.015 249.424 277.229 249.786C277.444 250.144 277.552 250.527 277.552 250.936H276.52C276.52 250.642 276.458 250.382 276.332 250.157C276.207 249.928 276.017 249.749 275.763 249.62C275.509 249.487 275.187 249.421 274.796 249.421C274.428 249.421 274.123 249.476 273.883 249.587C273.643 249.698 273.464 249.849 273.346 250.039C273.232 250.228 273.174 250.445 273.174 250.688C273.174 250.853 273.208 251.004 273.276 251.14C273.348 251.272 273.457 251.396 273.604 251.51C273.754 251.625 273.944 251.73 274.173 251.827C274.406 251.924 274.684 252.017 275.006 252.106C275.45 252.232 275.833 252.371 276.155 252.525C276.477 252.679 276.742 252.853 276.95 253.046C277.161 253.236 277.317 253.453 277.417 253.696C277.521 253.936 277.573 254.208 277.573 254.513C277.573 254.831 277.509 255.12 277.38 255.377C277.251 255.635 277.067 255.855 276.827 256.038C276.587 256.221 276.298 256.362 275.962 256.462C275.629 256.559 275.256 256.607 274.845 256.607C274.483 256.607 274.127 256.557 273.776 256.457C273.428 256.357 273.112 256.206 272.825 256.006C272.542 255.805 272.315 255.558 272.143 255.265C271.975 254.967 271.891 254.624 271.891 254.233H272.922C272.922 254.502 272.974 254.733 273.078 254.926C273.181 255.116 273.323 255.274 273.502 255.399C273.685 255.524 273.89 255.617 274.12 255.678C274.352 255.736 274.594 255.764 274.845 255.764C275.206 255.764 275.512 255.714 275.763 255.614C276.014 255.514 276.204 255.37 276.332 255.184C276.465 254.998 276.531 254.778 276.531 254.523ZM282.171 255.506V252.515C282.171 252.285 282.124 252.087 282.031 251.918C281.942 251.747 281.806 251.614 281.623 251.521C281.44 251.428 281.215 251.381 280.946 251.381C280.696 251.381 280.475 251.424 280.286 251.51C280.099 251.596 279.953 251.709 279.845 251.849C279.741 251.988 279.689 252.139 279.689 252.3H278.696C278.696 252.092 278.749 251.886 278.857 251.682C278.964 251.478 279.118 251.294 279.319 251.129C279.523 250.961 279.766 250.828 280.049 250.731C280.336 250.631 280.654 250.581 281.005 250.581C281.428 250.581 281.8 250.653 282.122 250.796C282.448 250.939 282.703 251.156 282.885 251.446C283.071 251.732 283.164 252.092 283.164 252.525V255.232C283.164 255.426 283.181 255.632 283.213 255.85C283.249 256.069 283.301 256.257 283.369 256.414V256.5H282.332C282.282 256.385 282.242 256.233 282.214 256.043C282.185 255.85 282.171 255.671 282.171 255.506ZM282.343 252.977L282.353 253.675H281.349C281.066 253.675 280.814 253.698 280.592 253.745C280.37 253.788 280.184 253.854 280.033 253.943C279.883 254.033 279.768 254.146 279.689 254.282C279.611 254.414 279.571 254.57 279.571 254.749C279.571 254.932 279.612 255.098 279.695 255.249C279.777 255.399 279.901 255.519 280.065 255.608C280.234 255.694 280.44 255.737 280.683 255.737C280.987 255.737 281.256 255.673 281.489 255.544C281.721 255.415 281.906 255.257 282.042 255.071C282.182 254.885 282.257 254.704 282.268 254.529L282.692 255.007C282.667 255.157 282.599 255.324 282.488 255.506C282.377 255.689 282.228 255.864 282.042 256.033C281.859 256.197 281.641 256.335 281.387 256.446C281.136 256.554 280.853 256.607 280.538 256.607C280.144 256.607 279.799 256.53 279.501 256.376C279.208 256.222 278.979 256.017 278.814 255.759C278.653 255.497 278.572 255.206 278.572 254.883C278.572 254.572 278.633 254.298 278.755 254.062C278.877 253.822 279.052 253.623 279.281 253.465C279.51 253.304 279.786 253.182 280.108 253.1C280.431 253.018 280.79 252.977 281.188 252.977H282.343ZM287.161 250.688V251.451H284.018V250.688H287.161ZM285.082 249.276H286.076V255.061C286.076 255.257 286.106 255.406 286.167 255.506C286.228 255.607 286.307 255.673 286.403 255.705C286.5 255.737 286.604 255.753 286.715 255.753C286.797 255.753 286.883 255.746 286.973 255.732C287.066 255.714 287.136 255.7 287.182 255.689L287.187 256.5C287.109 256.525 287.005 256.548 286.876 256.57C286.751 256.595 286.598 256.607 286.419 256.607C286.176 256.607 285.952 256.559 285.748 256.462C285.544 256.366 285.381 256.205 285.259 255.979C285.141 255.75 285.082 255.442 285.082 255.055V249.276Z" fill="#C6C8D5"/>
<path d="M70 180.5C102.138 180.5 98.341 120.5 130.479 120.5C162.618 120.5 158.815 136.5 190.953 136.5C223.091 136.5 218.141 162.786 250.28 162.786C282.418 162.786 287.862 176.289 320 176.289" stroke="url(#paint0_linear_1215_19537)" stroke-width="5.81515" stroke-linecap="round"/>
<path d="M70 162.5C101.386 162.5 105.395 120.706 136.782 120.706C168.168 120.706 162.964 87.5 194.351 87.5C225.737 87.5 225.137 134.447 256.523 134.447C287.909 134.447 289.614 158.109 321 158.109" stroke="#C0C2D1" stroke-width="5.81515" stroke-linecap="round"/>
<g filter="url(#filter0_f_1215_19537)">
<rect x="-103" y="1" width="257" height="313" fill="#F9F9FA"/>
</g>
</g>
<defs>
<filter id="filter0_f_1215_19537" x="-167" y="-63" width="385" height="441" filterUnits="userSpaceOnUse" color-interpolation-filters="sRGB">
<feFlood flood-opacity="0" result="BackgroundImageFix"/>
<feBlend mode="normal" in="SourceGraphic" in2="BackgroundImageFix" result="shape"/>
<feGaussianBlur stdDeviation="32" result="effect1_foregroundBlur_1215_19537"/>
</filter>
<linearGradient id="paint0_linear_1215_19537" x1="370" y1="158" x2="30.5" y2="171" gradientUnits="userSpaceOnUse">
<stop stop-color="#C0C2D2"/>
<stop offset="1" stop-color="white" stop-opacity="0"/>
</linearGradient>
</defs>
</svg>
